hi there

slip: 1
0 -6874 -4664 8184
3 -4330 -4990 11742
6 -2174 -6892 17758
9 -2578 -6636 18980
12 -4742 -4824 15698
15 -7422 -3898 9584
18 -7360 -4138 7248
21 -5642 -4308 9016
24 -3244 -5512 14306
27 -2638 -6502 19462
30 -3568 -5738 18812
33 -6404 -4742 12132
36 -7882 -4404 6968
39 -7228 -4594 6710
42 -4950 -5168 9974
45 -2496 -6780 15572
48 -2424 -7178 18972
51 -3772 -6280 16562
54 -6894 -4966 9192
57 -7844 -4704 5778
60 -6214 -4880 7414
63 -3416 -5492 12704
66 -2344 -6754 17550
69 -2808 -6470 19294
72 -4620 -5300 15320
75 -7750 -4086 6974
78 -6802 -4018 6796
81 -4604 -4640 10266
84 -2982 -5652 14254
87 -2336 -6484 18220
90 -2970 -6238 19474
93 -5794 -5202 14094
96 -8282 -3972 7398
99 -6692 -4402 7672
102 -4312 -5416 12844
105 -2084 -7054 19106
108 -3032 -6890 18724
111 -4670 -6524 14928
114 -7334 -5326 7344
117 -7600 -5040 5386
120 -5670 -5510 8494
123 -2110 -6678 18372
126 -2130 -7106 18962
129 -3626 -7138 17940
132 -5152 -6238 13056
135 -7628 -5182 6094
138 -6946 -5532 5382
141 -4922 -5738 11486
144 -2144 -5668 17974
147 -2794 -6774 17706
150 -4042 -6078 14962
153 -6492 -4782 7720
156 -7240 -4676 4564
159 -5762 -4782 10748
162 -3538 -4910 15702
165 -2112 -6032 18356
168 -2814 -6450 18276
171 -5284 -5896 13414
174 -7476 -5018 6226
177 -7210 -4742 8174
180 -5816 -4354 12288
183 -3486 -5566 16610
186 -2468 -6604 18558
189 -4184 -6722 16254
192 -6814 -5878 8984
195 -7568 -5418 6962
198 -5988 -4976 9944
201 -3970 -5394 14416
204 -1898 -6626 17736
207 -2766 -7034 17622
210 -4146 -6674 15182
213 -6432 -5570 9396
216 -7310 -4994 6966
219 -4906 -5362 10498
222 -3082 -5496 15054
225 -1580 -6812 17868
228 -2444 -7050 17040
231 -4616 -6212 12530
234 -7454 -4704 7596
237 -7236 -4430 7810
240 -4686 -4756 13166
243 -2038 -5756 17400
246 -1778 -6950 18130
249 -3156 -7158 15086
252 -4624 -6618 11452
255 -7346 -4928 7728
258 -8358 -4320 8968
261 -6698 -4268 13084
264 -2210 -6248 17958
267 -2210 -7594 18120
270 -3446 -7476 14182
273 -6098 -5970 8798
276 -8702 -4370 7986
279 -7424 -4290 10618
282 -4338 -5284 15252
285 -2104 -7080 17918
288 -2494 -7796 16174
291 -4650 -6584 10538
294 -7564 -4742 7102
297 -7770 -4622 7384

14 g14788 Avg Wavtime 19.80 var 0.47 freq 50.49 RMSacc 3097.56 mov 13.81 mm/s.

slip: 1
0 -2784 -7920 11396
3 -848 -8960 15456
6 -828 -9826 16920
9 -2294 -9512 15240
12 -6804 -6424 8618
15 -6546 -6708 6906
18 -3518 -7550 9696
21 -1718 -8634 13876
24 -446 -9836 17022
27 -1296 -9878 17086
30 -3044 -9176 14178
33 -6014 -6878 9010
36 -5452 -6920 7012
39 -2740 -7740 10218
42 -1156 -8656 14516
45 -488 -9826 16798
48 -1864 -9266 15862
51 -4326 -7902 10874
54 -6632 -6206 6978
57 -4650 -6982 7746
60 -2232 -7752 12712
63 -344 -9386 16370
66 -1186 -9654 16614
69 -2738 -8892 13572
72 -4860 -7526 9962
75 -7050 -6454 6862
78 -3914 -7194 7980
81 -2080 -8444 13402
84 -274 -10152 16718
87 -1510 -10134 16392
90 -2976 -8550 12714
93 -7302 -6778 7922
96 -5550 -7280 7132
99 -2946 -8064 10000
102 -1442 -8682 14342
105 -618 -10486 17210
108 -2434 -9584 14422
111 -5440 -6940 9844
114 -7164 -6220 7352
117 -4720 -7514 7034
120 -2668 -8028 10912
123 -512 -8744 14940
126 68 -10472 16552
129 -2192 -8464 13762
132 -6600 -5964 8764
135 -6652 -6174 6754
138 -3312 -7086 9280
141 -1610 -8066 13122
144 390 -9686 16424
147 -762 -9660 16342
150 -3376 -8036 12642
153 -7720 -5362 7380
156 -6182 -6042 7230
159 -3304 -7062 10486
162 -1412 -8496 14586
165 60 -9934 17086
168 -1908 -10166 16350
171 -4266 -8210 11918
174 -7606 -5986 7978
177 -4364 -6738 8604
180 -2366 -7940 12708
183 150 -9750 15842
186 -492 -10534 16974
189 -2624 -9442 13800
192 -6200 -6804 9272
195 -6648 -6108 7068
198 -4370 -6634 8016
201 -1964 -7894 13382
204 468 -9814 15964
207 -740 -10496 16388
210 -2986 -8868 12490
213 -6776 -6290 8398
216 -5934 -5986 7140
219 -3128 -7170 9794
222 -22 -9162 15122
225 338 -11086 16574
228 -1300 -10086 14702
231 -5360 -7524 10030
234 -7598 -5512 7220
237 -4668 -6826 8202
240 -3182 -7386 11008
243 -630 -8780 14892
246 2 -11006 16658
249 -1974 -9762 13892
252 -6538 -6800 9262
255 -7294 -5688 7014
258 -4150 -6876 9240
261 -1930 -7902 13414
264 546 -10112 15984
267 -220 -10804 16426
270 -3986 -8024 11178
273 -7936 -5752 7570
276 -5178 -6170 7686
279 -2720 -7382 11478
282 -200 -9032 15100
285 596 -10262 16272
288 -710 -10764 15882
291 -3176 -8336 11870
294 -7702 -5684 7242
297 -4488 -6498 8420

14 g14890 Avg Wavtime 19.91 var 0.36 freq 50.22 RMSacc 2326.47 mov 10.43 mm/s.

slip: 1
0 2102 -12654 15962
3 -1116 -10938 12700
6 -6722 -6920 8812
9 -8032 -5352 7206
12 -3420 -6842 11098
15 382 -9206 14590
18 3316 -11936 15984
21 812 -11930 14502
24 -3814 -8106 10606
27 -8102 -5072 7576
30 -6930 -4704 7366
33 -4144 -6356 10546
36 1588 -9906 14532
39 3050 -12414 15378
42 528 -11846 13586
45 -5364 -7590 9818
48 -7884 -5062 7576
51 -5964 -5426 9336
54 -4032 -7988 12838
57 3166 -11344 15840
60 1360 -12028 15902
63 -2578 -9468 12152
66 -7946 -5420 8798
69 -6698 -4766 8386
72 -5932 -6208 10130
75 -2252 -8290 13462
78 2614 -11512 15320
81 740 -12068 14824
84 -3270 -8278 10806
87 -7870 -5070 7692
90 -5892 -5582 7848
93 -2746 -7452 11076
96 1172 -9472 14454
99 3186 -12400 15586
102 330 -11094 14162
105 -6830 -6052 9508
108 -7476 -4998 7752
111 -4150 -6474 10190
114 -3644 -6882 12992
117 1798 -10030 15246
120 3196 -12736 15938
123 -374 -10900 13642
126 -6430 -6746 9980
129 -6976 -5872 8144
132 -3970 -7634 10980
135 -1014 -8782 14936
138 3026 -12434 16482
141 1510 -12386 15522
144 -3592 -7706 12092
147 -8264 -4896 8222
150 -5234 -6096 8724
153 -2234 -7394 12138
156 2248 -10238 15736
159 3158 -11930 16312
162 1236 -10092 15538
165 -5638 -6710 10526
168 -8938 -4336 7444
171 -5766 -5586 8122
174 -1298 -7418 13274
177 3132 -10040 15856
180 2298 -11252 16188
183 -2402 -9504 12350
186 -8514 -5862 8876
189 -7260 -5136 7974
192 -4406 -6210 11248
195 -328 -8466 14842
198 2714 -11752 16958
201 1594 -13010 16016
204 -3458 -8530 12296
207 -8910 -5998 8466
210 -7064 -5890 8110
213 -4982 -6088 11482
216 1520 -9238 14930
219 4614 -13050 16744
222 -812 -10784 13996
225 -7370 -6404 9684
228 -8818 -5444 7040
231 -4798 -7118 8656
234 -2064 -6628 13232
237 3180 -10356 15636
240 3158 -12522 15832
243 750 -10288 13920
246 -7850 -5524 8574
249 -7648 -5094 6962
252 -4774 -4480 10254
255 -218 -7538 13888
258 3848 -11008 16648
261 2114 -11268 16412
264 -2864 -8994 12096
267 -7892 -5184 7456
270 -6020 -4842 8694
273 -2880 -5704 12828
276 3302 -10734 15530
279 4034 -12978 16652
282 -698 -11024 14322
285 -4572 -9236 10812
288 -8938 -6894 6918
291 -5620 -5510 9450
294 -1884 -8032 13502
297 4294 -11608 16026

14 g14959 Avg Wavtime 20.03 var 0.49 freq 49.92 RMSacc 2285.74 mov 10.31 mm/s.

slip: 1
0 7578 -10004 13696
3 6198 -14274 13936
6 -48 -14764 12840
9 -6168 -10016 9510
12 -6598 -6096 7372
15 -3694 -6762 9456
18 -242 -12760 9222
21 7808 -15036 11974
24 6814 -15882 13680
27 -1022 -13074 12832
30 -7932 -9532 8362
33 -8036 -7968 6376
36 -5356 -8726 9080
39 3560 -10834 11640
42 9540 -13792 13814
45 3872 -13746 14124
48 -5582 -10408 10504
51 -8812 -7842 6152
54 -6796 -7734 7234
57 -888 -9166 10514
60 7966 -12210 13002
63 9440 -14320 14588
66 5264 -13916 14418
69 -6786 -9782 9318
72 -8524 -7694 5664
75 -6204 -8130 7744
78 1190 -9834 10850
81 8956 -13010 13404
84 8586 -14518 14836
87 -200 -12566 13552
90 -8740 -8412 7284
93 -7518 -7648 6590
96 -3258 -8826 9654
99 6106 -11438 11994
102 9838 -14172 14140
105 4518 -13868 14408
108 -2158 -11850 12588
111 -8490 -8664 7520
114 -7118 -7786 6668
117 -1434 -9290 9672
120 7490 -12246 11930
123 9546 -14558 13834
126 2710 -13570 13662
129 -6210 -10158 9692
132 -8644 -7734 5884
135 -6568 -8040 7434
138 3856 -10728 10944
141 9638 -13818 13272
144 6804 -14526 14282
147 -2940 -11686 11972
150 -7586 -9430 8580
153 -8272 -7622 5644
156 -5562 -8422 8030
159 2850 -10496 10636
162 9970 -14388 13608
165 5020 -14272 14178
168 -4798 -10942 11016
171 -8842 -8130 6466
174 -7264 -7818 6668
177 -1854 -9322 9838
180 7172 -12206 12048
183 9684 -14664 14094
186 -452 -12674 13286
189 -7962 -9162 8508
192 -8688 -7778 6158
195 -6700 -7988 7262
198 322 -9796 10054
201 8512 -12900 12078
204 9194 -14826 13730
207 1000 -13134 13018
210 -8500 -8708 6918
213 -7620 -7710 5752
216 -3768 -8936 8826
219 5546 -11482 11016
222 10100 -14376 13314
225 5610 -14416 14164
228 -4256 -11204 11448
231 -8544 -7756 6188
234 -7176 -7822 6918
237 -2030 -9258 10030
240 7170 -12108 12008
243 10018 -14636 13996
246 3590 -13896 14250
249 -5860 -10438 10554
252 -8776 -7898 6268
255 -5280 -8506 8356
258 3316 -10674 10700
261 9732 -13792 13006
264 7578 -14774 14300
267 -1880 -12188 12656
270 -8362 -8838 7654
273 -7774 -7642 5978
276 -4058 -8808 8836
279 5264 -11298 10932
282 10160 -14240 13164
285 6060 -14424 14008
288 -3622 -11416 11546
291 -8730 -8304 6500
294 -7274 -7804 6258
297 -2386 -9250 9296

14 g15172 Avg Wavtime 18.85 var 12.35 freq 53.06 RMSacc 1398.68 mov 5.93 mm/s.

slip: 1
0 8612 -18684 10312
3 2178 -16544 18596
6 -4260 -8944 13552
9 -7286 -5018 7344
12 -2892 -4910 2582
15 -2648 -6944 9720
18 4610 -13682 7938
21 8678 -19348 11862
24 2680 -17064 18612
27 -5556 -7306 11486
30 -5852 -4564 3414
33 -986 -5662 4132
36 384 -10516 8548
39 8138 -17330 10794
42 6134 -19218 15948
45 -756 -13686 18408
48 -7462 -4796 5734
51 -4608 -4552 1868
54 -1970 -6158 6194
57 2648 -12232 8774
60 8560 -18860 11752
63 4156 -18452 18324
66 -2218 -11978 16984
69 -7186 -5060 6610
72 -1304 -5168 1312
75 -1398 -8590 10228
78 6864 -15828 10400
81 6904 -19698 15094
84 98 -15018 19822
87 -4840 -7676 10970
90 -5852 -4532 2494
93 -1874 -5046 1202
96 164 -9898 10860
99 7640 -17432 11156
102 5758 -19286 17766
105 -744 -13592 19176
108 -5984 -6246 8908
111 -4300 -4628 1852
114 662 -7012 2314
117 1682 -11472 10026
120 7492 -19658 13980
123 2376 -16842 21130
126 -3744 -9170 14850
129 -7042 -4362 3898
132 -1576 -5786 418
135 248 -8460 5700
138 3414 -12956 9190
141 6938 -19458 16444
144 1636 -15662 21158
147 -4908 -7818 12736
150 -6230 -4472 3032
153 -1488 -6218 458
156 1092 -9262 8606
159 7000 -16994 9240
162 5468 -19012 17876
165 -1400 -11716 17762
168 -6978 -5308 7116
171 -3226 -5578 918
174 168 -7462 4166
177 4376 -12864 8532
180 7666 -18232 9892
183 4794 -18828 19244
186 -612 -12956 19060
189 -7066 -4972 5318
192 -2792 -5392 1118
195 590 -7586 6602
198 5484 -14728 8212
201 7440 -20262 14596
204 2410 -16660 20954
207 -4896 -8036 14044
210 -5716 -4446 2166
213 164 -6742 1212
216 2636 -10758 9502
219 7640 -19022 11034
222 5946 -19844 16832
225 1524 -15030 20494
228 -5982 -6588 11466
231 -6030 -4588 2616
234 -32 -7820 3176
237 3906 -12574 8274
240 7998 -19324 12352
243 3490 -17624 21278
246 -2766 -9992 16562
249 -7762 -4530 5722
252 -3386 -5464 1016
255 1332 -8040 5272
258 7408 -17420 8812
261 6452 -19670 17732
264 2128 -16328 21628
267 -4638 -8250 14280
270 -7658 -4024 3902
273 -2296 -5000 1500
276 2104 -8746 7130
279 6796 -16848 8798
282 4538 -19158 19420
285 -1292 -12428 19364
288 -7388 -5422 7370
291 -4684 -4686 1292
294 1170 -7108 2312
297 4066 -12686 9530

-1 g15090 Avg Wavtime 

slip: 1
0 6722 -17304 13758
3 2456 -16894 21138
6 -3384 -9386 14842
9 -6526 -5008 4810
12 -812 -6592 458
15 1640 -8586 3518
18 5126 -14558 9214
21 5878 -18864 18724
24 18 -13576 18926
27 -6692 -6072 9272
30 -3264 -5602 1272
33 1196 -7972 1140
36 1802 -9370 4670
39 5968 -16006 11476
42 4948 -18622 20026
45 782 -14606 19902
48 -6834 -5378 7266
51 -2138 -5896 660
54 1432 -8086 2008
57 3734 -12608 7388
60 6486 -18638 16582
63 2680 -17500 20958
66 -2846 -9736 15344
69 -6318 -5086 5264
72 274 -7490 292
75 1788 -9832 4924
78 6336 -16570 12470
81 5862 -18860 18402
84 1746 -16202 20646
87 -4524 -8022 13438
90 -5634 -4904 3378
93 -200 -7150 -4
96 2652 -11598 6424
99 6554 -17444 14840
102 3440 -18042 20500
105 -1196 -11818 17906
108 -6986 -5318 7596
111 -2168 -5852 306
114 1366 -8034 2138
117 6578 -15800 11010
120 5098 -18336 19386
123 2420 -17142 20706
126 -3012 -9848 15312
129 -6934 -4846 4986
132 -1352 -6202 -140
135 1896 -9182 3492
138 6208 -15278 10312
141 4250 -17876 20656
144 108 -13726 18936
147 -6680 -6080 9122
150 -4826 -4710 936
153 904 -7092 1684
156 3070 -12026 6648
159 7626 -17574 15864
162 3154 -16890 21708
165 -860 -12096 17160
168 -7040 -5678 6188
171 -3762 -5008 12
174 1480 -7894 2274
177 4636 -13894 8274
180 7026 -18220 17616
183 2218 -16498 21640
186 -2470 -10382 14972
189 -5938 -4850 1566
192 -1190 -6412 454
195 2382 -10762 4668
198 8252 -17378 14126
201 4472 -17802 20814
204 350 -14196 18808
207 -4234 -8528 12518
210 -6482 -4622 2354
213 -130 -6976 1200
216 3312 -12024 6450
219 8742 -17964 16662
222 3454 -16754 21712
225 -860 -12386 17036
228 -7074 -5654 6230
231 -4274 -4806 -476
234 1708 -9312 3492
237 7434 -16092 13020
240 6310 -18440 19536
243 1042 -15442 20414
246 -4832 -7964 11364
249 -7024 -5050 4252
252 -3238 -5210 -502
255 1504 -8766 3004
258 8594 -17218 13528
261 4906 -17942 20230
264 68 -14016 19502
267 -6176 -6566 8882
270 -5576 -4402 248
273 -578 -6764 1000
276 2788 -11382 10416
279 8744 -18406 14044
282 1786 -16042 21362
285 -2838 -9894 14170
288 -6940 -4866 3246
291 -3002 -5400 -412
294 356 -7578 2310
297 4308 -12912 11494

-1 g15168 Avg Wavtime 

slip: 1
0 -6008 944 15488
3 -5320 762 14512
6 -4962 412 13334
9 -5098 320 12472
12 -5374 326 12018
15 -5516 168 11892
18 -5308 -206 12008
21 -5256 -248 12172
24 -5294 366 12560
27 -5344 116 12744
30 -5396 -368 13102
33 -5396 -1048 13428
36 -5418 -1132 13672
39 -5492 -962 13682
42 -5670 -602 13520
45 -5702 -250 13348
48 -5762 -120 13174
51 -6042 -160 12956
54 -6220 -220 12646
57 -6332 -260 12402
60 -6286 -472 12080
63 -6082 -638 11808
66 -5976 -818 11496
69 -6508 -1074 11208
72 -6798 -1146 11132
75 -6890 -796 11084
78 -6902 -568 11240
81 -6888 -836 11608
84 -6312 -1060 12304
87 -5592 -1040 13074
90 -5286 -1318 13940
93 -5288 -1826 14988
96 -5106 -1922 15568
99 -5206 -1630 15850
102 -5852 -1692 16054
105 -6234 -2158 16360
108 -5866 -2160 16444
111 -5146 -1394 16070
114 -4820 -910 15684
117 -4936 -584 14756
120 -5016 -1478 13726
123 -5102 -2144 12388
126 -4916 -2232 10842
129 -4526 -1820 9578
132 -4556 -1594 8688
135 -5470 -2154 8376
138 -6278 -2872 8620
141 -6010 -2674 9400
144 -4982 -1364 9958
147 -4518 -490 10640
150 -3648 210 11216
153 -3638 322 11414
156 -3962 220 11514
159 -5072 828 17484
162 -5064 1192 20066
165 -5964 2574 24336
168 -6784 3430 22340
171 -8308 3880 15402
174 -8238 3908 10156
177 -6902 3454 8486
180 -5534 2794 10914
183 -4402 2512 17098
186 -5432 2012 19428
189 -6878 2006 15976
192 -7140 1772 11380
195 -6832 888 8738
198 -6334 680 8654
201 -5328 690 11158
204 -4412 632 16762
207 -5292 1118 18296
210 -6230 886 15256
213 -6696 480 10950
216 -6332 90 8296
219 -5858 80 9358
222 -4886 292 13596
225 -4712 486 17058
228 -5224 902 17574
231 -5770 1308 14930
234 -6454 776 9732
237 -6312 636 9016
240 -5262 290 11774
243 -4454 772 15802
246 -5236 1194 18556
249 -6356 2070 17558
252 -7320 2906 13694
255 -7276 2802 9868
258 -6302 2160 9782
261 -5314 2374 13330
264 -4696 2746 18072
267 -4950 2828 19488
270 -5706 2474 16634
273 -6006 1988 12042
276 -5948 1574 9056
279 -5644 1112 9618
282 -4914 700 15876
285 -4846 1204 19506
288 -5446 1862 20202
291 -6198 2134 16348
294 -6652 1984 12376
297 -6288 1640 10728

7 g14588 Avg Wavtime 27.15 var 298.53 freq 36.83 RMSacc 2151.46 mov 13.15 mm/s.

slip: 1
0 -15308 3292 -658
3 -14234 4064 1524
6 -8634 2924 10576
9 -1104 2034 19344
12 -1982 2570 19724
15 -10630 4280 10388
18 -16052 4362 2418
21 -15896 3580 526
24 -13888 4744 4682
27 -6502 4068 15266
30 -732 2762 22094
33 -4012 3170 19332
36 -13472 4854 9296
39 -17626 3724 1928
42 -16044 3240 1610
45 -13886 4658 6440
48 -2308 3472 19576
51 -1056 2934 21918
54 -9198 4712 14058
57 -16470 4974 4356
60 -16806 3650 844
63 -15410 3838 2000
66 -12012 5034 8310
69 -2632 3854 18602
72 -1932 3356 21012
75 -11264 5114 11684
78 -17062 4574 2810
81 -16306 3372 742
84 -14516 4476 3934
87 -6640 4228 14070
90 -206 3338 21190
93 -6512 4506 16422
96 -15492 5414 6180
99 -17452 3706 324
102 -15692 3652 1438
105 -13754 4680 5124
108 -4798 3928 16198
111 -314 3060 22144
114 -5510 4110 17772
117 -16780 5144 4510
120 -17284 3410 62
123 -15614 3994 2144
126 -9290 4642 11064
129 -988 3700 20622
132 -1758 3554 21358
135 -10822 5544 12190
138 -17350 4862 3062
141 -16122 3298 810
144 -13454 4614 5888
147 -6798 4188 13672
150 -80 3320 21852
153 -2944 3654 20150
156 -12732 5664 10040
159 -17696 4258 2020
162 -16360 3056 668
165 -11822 4594 8260
168 -1784 3686 19046
171 -104 3156 22560
174 -7786 5000 15308
177 -16432 5364 5250
180 -17312 3314 606
183 -15498 3774 2306
186 -5646 3952 14852
189 -502 3498 20604
192 -768 3274 21910
195 -9858 5448 13094
198 -17188 4904 3790
201 -16770 3046 706
204 -14962 4122 3430
207 -6930 4148 13400
210 950 3220 22838
213 -4802 4468 17938
216 -14868 5776 7504
219 -17738 3730 1416
222 -15766 3370 1884
225 -11676 4682 8280
228 -1432 3688 18998
231 818 3222 22754
234 -6856 4914 15934
237 -16108 5458 5940
240 -17434 3304 1252
243 -15428 3674 2816
246 -9366 4466 10992
249 26 3492 20538
252 226 3280 22002
255 -9066 5330 13660
258 -17626 4262 2622
261 -16046 3142 1760
264 -13344 4572 6218
267 -2922 3820 17030
270 1600 3232 22738
273 -4062 4312 18336
276 -11332 5664 11502
279 -17524 4496 3378
282 -15724 3276 2246
285 -11760 4570 8268
288 -1162 3602 18796
291 1412 3166 22708
294 -6226 4774 16270
297 -15820 5508 6466

-1 g15030 Avg Wavtime 

slip: 1
0 -8754 4794 15548
3 -17560 4276 2970
6 -16044 2816 698
9 -14008 4208 4202
12 -5032 3988 15014
15 540 3292 22284
18 -4046 3826 20004
21 -13936 5454 9508
24 -17840 3706 1798
27 -15132 3454 1842
30 -12912 4422 5970
33 -3156 3740 17092
36 448 3160 22694
39 -6202 4212 18190
42 -15470 5328 7450
45 -17772 3220 948
48 -15360 3148 1432
51 -7796 4180 12134
54 -42 3344 21156
57 -1938 3370 21590
60 -11838 5232 12244
63 -17638 4240 3196
66 -16294 2670 728
69 -14228 4026 4114
72 -5384 3980 14772
75 586 3276 22242
78 -3682 3706 20392
81 -13616 5468 9964
84 -17766 3846 1998
87 -15710 2878 970
90 -13130 4380 5656
93 -3326 3868 16762
96 -324 3306 22440
99 -9220 4942 15018
102 -16846 4990 4996
105 -17020 2974 556
108 -14890 3718 2516
111 -8168 4292 11600
114 -84 3384 20858
117 212 3122 22652
120 -11396 5146 12698
123 -17510 4354 3502
126 -16438 2688 616
129 -14372 3956 3702
132 -5806 3984 14112
135 610 3226 21938
138 -3246 3606 20566
141 -13272 5420 10358
144 -17638 3192 898
147 -15282 3190 1658
150 -10778 4486 8726
153 -1178 3616 19272
156 -32 3234 22626
159 -5252 4100 19018
162 -14856 5456 8322
165 -17806 3432 1302
168 -14988 3584 2416
171 -8566 4326 11202
174 -136 3446 20628
177 -1254 3380 21988
180 -10932 5224 13162
183 -17382 4560 3816
186 -16544 2796 654
189 -12830 4416 6104
192 -2912 3782 17200
195 754 3180 22728
198 -6074 4274 18172
201 -12870 5454 10814
204 -17760 3980 2400
207 -15888 2814 850
210 -13582 4262 5052
213 -1500 3634 18896
216 88 3214 22642
219 -8342 4748 15922
222 -16552 5090 5576
225 -17326 2980 538
228 -15088 3522 2202
231 -9046 4390 10576
234 -400 3476 20306
237 -3668 3776 20302
240 -13628 5500 9916
243 -17282 4620 4004
246 -16666 2782 524
249 -14612 3830 3188
252 -6692 4132 13160
255 366 3382 21558
258 -2660 3634 21148
261 -15172 5478 7822
264 -17798 3352 1022
267 -15366 3084 1336
270 -11518 4474 7666
273 -1846 3700 18566
276 120 3240 22716
279 -7988 4672 16358
282 -16386 5156 5950
285 -16444 2756 586
288 -15164 3414 1974
291 -9520 4412 10042
294 -630 3602 20052
297 -802 3390 22262

-1 g15151 Avg Wavtime 

slip: 1
0 -15650 2944 1132
3 -12182 4392 6828
6 -2110 3800 17940
9 804 3476 22162
12 -7078 4734 17180
15 -16094 5286 6520
18 -17726 3044 502
21 -15338 3202 1658
24 -10200 4450 9198
27 -796 3694 19632
30 -206 3478 22514
33 -9312 5112 14990
36 -17878 4002 2476
39 -16274 2704 702
42 -13786 4098 4670
45 -4116 3964 15746
48 1000 3420 22548
51 -1424 3690 21838
54 -11510 5468 12748
57 -17668 4330 3354
60 -15842 2832 1170
63 -12476 4306 6608
66 -2294 3780 17762
69 780 3358 22846
72 -6576 4594 17704
75 -15834 5346 6998
78 -17788 3132 728
81 -14776 3706 3038
84 -6830 4262 12874
87 626 3600 21488
90 -2006 3886 21252
93 -8776 5158 15360
96 -16864 5018 5142
99 -17380 2868 464
102 -15114 3488 2394
105 -4520 3992 15332
108 996 3412 22410
111 -3950 4104 19832
114 -14152 5524 9416
117 -18070 3566 1600
120 -16090 2756 1126
123 -12848 4260 6182
126 -2570 3826 17366
129 -300 3484 22364
132 -9716 5220 14446
135 -15634 5420 7360
138 -17888 3222 922
141 -15736 2992 1644
144 -11180 4380 8416
147 -1200 3680 19048
150 248 3380 22652
153 -11822 5500 12054
156 -17686 4348 2980
159 -16644 2686 868
162 -14416 3942 4254
165 -5218 3984 14958
168 882 3422 22362
171 -3922 3974 20300
174 -15778 5394 6356
177 -17820 3890 1684
180 -16272 2842 1252
183 -13510 4318 6010
186 -3280 3802 17066
189 20 3406 23214
192 -5996 4184 18504
195 -14512 5506 6974
198 -16924 3004 444
201 -15192 3866 2956
204 -8418 4298 12168
207 -1766 3706 22330
210 -3458 3274 22674
213 -10404 5120 11902
216 -16094 4700 1864
219 -15406 3258 690
222 -14218 4324 4272
225 -6688 4070 15132
228 -3678 4284 23594
231 -5394 4340 21524
234 -11118 5232 9448
237 -15190 4216 718
240 -14232 3158 436
243 -12936 4444 4920
246 -5250 5038 20784
249 -5076 5338 24782
252 -8204 5190 17166
255 -13004 4532 4960
258 -14186 2918 -54
261 -13280 3430 1682
264 -11554 4276 6198
267 -6518 5086 18904
270 -5892 5920 24198
273 -9238 5634 15424
276 -12926 4264 4628
279 -13378 2798 994
282 -12446 3556 3006
285 -8160 4842 12698
288 -6010 5902 22704
291 -7964 5914 21044
294 -11466 5746 9950
297 -13116 4374 2912

-1 g15311 Avg Wavtime 

slip: 1
0 -7522 9508 7114
3 -13306 14630 3274
6 -12718 13300 7218
9 -7780 16900 6780
12 4376 12302 11126
15 7530 8918 9936
18 -2730 5884 10040
21 -9374 11468 4592
24 -13980 14326 3668
27 -11738 13720 7592
30 -5896 17966 6838
33 3324 13012 11380
36 6506 8048 10402
39 -4682 7838 8466
42 -12212 14528 2560
45 -13658 13340 6478
48 -9606 15250 7992
51 -846 16650 8604
54 6854 11138 11296
57 982 6470 10506
60 -9774 12338 4598
63 -13532 14202 3670
66 -13298 12844 7746
69 -8688 15764 8578
72 1234 15154 10642
75 7778 10776 11626
78 2708 7064 11356
81 -11046 13812 3324
84 -14416 13520 4892
87 -11096 13478 7772
90 -3790 17128 7358
93 5830 12442 11132
96 7192 8958 10348
99 -4098 7802 8856
102 -11714 14940 2102
105 -14128 13048 5686
108 -9678 14878 7212
111 -1562 16316 7932
114 6788 11946 10188
117 5326 8082 9154
120 -5650 11040 5208
123 -13218 14072 2854
126 -13556 12434 6792
129 -5984 16658 6888
132 3410 12812 10022
135 8006 10658 7720
138 -546 8358 6882
141 -10060 14048 1974
144 -14416 12936 5556
147 -10842 13418 8608
150 -6962 16276 7976
153 4860 11980 10604
156 7352 10002 7596
159 -2592 9874 6004
162 -11876 13922 2660
165 -13912 12872 7132
168 -9590 14556 9626
171 -2086 16090 9840
174 7840 11294 9432
177 2488 8374 7934
180 -8046 13218 3134
183 -14340 13270 5128
186 -12148 12588 9482
189 -6460 16354 9192
192 -68 14934 10420
195 7440 11536 9618
198 642 9348 6784
201 -9904 13786 2422
204 -14570 12926 5528
207 -11160 13030 9186
210 -4578 16630 8230
213 4738 12414 10526
216 7672 10400 7374
219 -1478 10334 5772
222 -13412 13696 3784
225 -13266 12392 8162
228 -8284 15572 8618
231 1060 14752 9628
234 6062 11892 10018
237 6370 9570 7190
240 -3802 11334 4726
243 -12790 13758 3316
246 -12358 12420 8884
249 -6752 16250 8552
252 2932 13536 10368
255 8150 11022 8224
258 836 8836 6998
261 -9396 13726 2982
264 -14644 12870 6138
267 -9924 13980 10072
270 -1814 15888 9374
273 6444 11738 10260
276 7906 10670 7882
279 -1496 9460 6772
282 -11108 14038 3292
285 -14584 12612 7402
288 -10876 13064 10444
291 -74 14452 10178
294 7824 11902 8622
297 4378 9690 6578

14 g15300 Avg Wavtime 19.99 var 0.48 freq 50.03 RMSacc 3906.39 mov 17.58 mm/s.

slip: 1
0 -14326 12646 4858
3 -10742 12546 9942
6 -5738 14684 10904
9 4968 13388 11336
12 8490 11876 7686
15 -1460 10536 4882
18 -11538 13686 1890
21 -14254 12306 6426
24 -10022 13056 10686
27 454 14598 11454
30 8530 12920 9406
33 3892 9564 7486
36 -9000 9544 6856
39 -13528 14392 3078
42 -11456 13150 8178
45 -8758 14252 9178
48 -896 15084 9528
51 8888 12596 7526
54 1480 8542 7418
57 -9240 13682 2586
60 -14032 13674 4140
63 -10704 13046 8640
66 -5522 15232 9562
69 4818 14060 10168
72 7160 11230 6184
75 -4936 11210 4048
78 -13168 14066 1444
81 -13150 12544 6754
84 -8758 14088 9658
87 16 14864 10518
90 6584 13820 9970
93 8330 12566 6092
96 -6584 13112 1870
99 -14528 12568 3430
102 -12676 11664 8656
105 -7694 14288 10782
108 2386 14332 11272
111 9110 13042 8192
114 3632 12098 4258
117 -8934 13138 1954
120 -14624 11790 6324
123 -9948 12990 10372
126 -2924 15112 10782
129 7040 13688 9736
132 9286 12932 6860
135 1292 12338 3092
138 -10738 13678 1394
141 -13934 11514 7578
144 -9204 13482 10668
147 -710 14726 10914
150 8266 13440 8826
153 6368 12478 4582
156 -5812 13472 1528
159 -14598 12488 3638
162 -12970 11490 8924
165 -5794 14698 10818
168 4924 13760 10554
171 8916 12774 6438
174 4366 12636 3620
177 -8386 13620 1262
180 -15158 11924 4620
183 -11882 11694 9750
186 -6896 14400 10688
189 6540 13466 9744
192 8010 12488 5494
195 -2412 13272 1766
198 -13280 13018 2574
201 -14180 11348 7726
204 -9674 13062 10778
207 -1506 14552 10836
210 7826 13328 8854
213 3482 12778 3096
216 -5146 13624 1254
219 -14418 12458 3390
222 -13152 11372 8620
225 -8478 13828 10662
228 1244 14358 10676
231 8880 13160 7762
234 1190 13208 2326
237 -11164 13624 1756
240 -15070 11550 6304
243 -10496 12490 10666
246 -4086 14830 10758
249 6422 13612 9884
252 8430 12652 5800
255 -1596 13406 2080
258 -12950 13114 2658
261 -14470 11324 7598
264 -9754 13012 11080
267 -1822 14626 11076
270 7790 13366 9360
273 7162 12548 5146
276 -4474 13654 1808
279 -14244 12634 3582
282 -11784 11716 10198
285 -6610 14442 10990
288 4234 13778 10912
291 8966 12682 7156
294 1644 13082 2908
297 -10834 13628 1820

-1 g15298 Avg Wavtime 

slip: 1
0 1800 11230 3494
3 -13270 12612 1684
6 -14354 11362 7038
9 -8744 13818 10944
12 -268 16238 10984
15 8366 13460 10154
18 7056 11916 5432
21 -5846 11416 2598
24 -15294 11742 4826
27 -11496 11958 10462
30 -4950 16078 11350
33 5380 14452 12006
36 9286 13098 9604
39 4788 11304 5016
42 -8150 12072 2218
45 -14900 12168 4002
48 -10100 12738 10968
51 -3104 16336 10966
54 6806 13824 11244
57 8770 12286 6600
60 -2596 10560 3754
63 -12822 12976 1844
66 -14164 11696 6810
69 -8696 13738 10618
72 2200 14992 10756
75 9766 13276 8712
78 3766 11008 4688
81 -5128 11030 3154
84 -13658 12926 2092
87 -13156 11670 7548
90 -7440 14724 10446
93 770 15298 10708
96 9934 13068 7746
99 1558 11360 3926
102 -10866 13112 1276
105 -15166 11602 5012
108 -10390 12454 10118
111 -3598 16110 10598
114 6366 14030 11706
117 6754 12006 5636
120 -6392 11532 2732
123 -12386 13192 1514
126 -14642 11426 6402
129 -9320 13288 10540
132 -1666 15994 10658
135 8116 13980 10554
138 7840 12162 5652
141 -8448 12724 1416
144 -15258 11838 3524
147 -11934 11612 9046
150 -5582 15682 10394
153 4658 14846 11358
156 9866 13158 7574
159 1916 11248 3718
162 -10244 13220 950
165 -15152 11678 4774
168 -10686 12246 9972
171 -3362 16422 10512
174 5786 13882 11592
177 9320 12672 7092
180 -1128 11062 3562
183 -12332 12874 1382
186 -14424 11698 6172
189 -6816 15188 10656
192 1070 14810 11396
195 9092 13512 10506
198 5052 11510 5734
201 -7652 13062 1368
204 -14924 12164 3004
207 -13594 11600 6708
210 -7680 14522 10190
213 2592 13610 11808
216 10356 13724 9516
219 2400 10950 5086
222 -9976 12974 546
225 -14878 11892 3776
228 -10604 12244 8972
231 -3648 16506 9818
234 7818 13572 11114
237 7738 12102 6284
240 -4506 12452 2070
243 -14240 12276 1808
246 -13300 11424 7378
249 -7044 15110 10316
252 -2178 16382 10336
255 7284 13798 11568
258 5320 11334 5594
261 -7082 12948 1702
264 -14940 12106 3636
267 -12112 11694 9322
270 -5572 16030 10798
273 2588 14032 11818
276 9910 13080 9206
279 2574 10630 5240
282 -12692 12740 1684
285 -14216 11690 6698
288 -8382 13988 10560
291 -1620 16024 10478
294 4110 13240 11868
297 9690 12722 8348

-1 g15308 Avg Wavtime 

slip: 1
0 -8032 11216 3884
3 -14450 12490 3974
6 -11512 12056 8996
9 -5526 15994 9984
12 3908 14756 10194
15 9920 13154 7776
18 -1906 10198 5142
21 -11578 13704 2114
24 -14726 12184 4806
27 -10206 12478 9314
30 -4344 16138 9594
33 5732 14138 9900
36 9638 12840 6974
39 -28 10160 5186
42 -13250 13002 3078
45 -13472 11494 7898
48 -7250 14808 10398
51 1240 15852 9940
54 9086 13404 8746
57 5548 11374 5460
60 -6824 11654 3670
63 -14964 11668 6046
66 -12136 11624 9628
69 -6116 15716 10396
72 3346 14844 10386
75 9592 13252 7914
78 2838 10340 5562
81 -9028 12420 3294
84 -14900 11992 5500
87 -8614 13566 11038
90 -1656 16264 10124
93 7774 13560 9554
96 7458 11830 6134
99 -3678 9952 5004
102 -13020 12980 2932
105 -13672 11304 8360
108 -9208 12964 10902
111 700 15794 10444
114 9166 13890 8608
117 5408 11664 5324
120 -5516 10630 4684
123 -14306 12634 3554
126 -12470 11282 9524
129 -6716 14854 11110
132 3088 15368 10650
135 9630 14958 5478
138 -938 9444 5452
141 -11686 12068 3196
144 -15350 11118 6930
147 -9292 12902 11086
150 -5388 15482 10814
153 5366 14920 10314
156 7932 14376 4526
159 -2316 10138 4294
162 -13302 12502 2496
165 -14558 10990 7222
168 -8222 13766 10520
171 140 15974 9884
174 9108 14590 8174
177 6132 14192 3594
180 -7382 9766 4912
183 -15428 11486 4704
186 -10592 12104 9994
189 -4466 15952 10110
192 2642 15736 9584
195 9638 14766 6806
198 3286 13386 3000
201 -5660 8790 4926
204 -15306 11186 6450
207 -9282 12914 11406
210 -2542 16214 10606
213 7412 14288 9646
216 7766 14674 4596
219 -2680 9966 4562
222 -10902 11312 3950
225 -12656 11388 9650
228 -6512 15154 11404
231 3484 15552 10572
234 9606 14914 7266
237 5126 13964 4786
240 -3936 9594 5700
243 -11694 11566 3676
246 -13978 11288 8112
249 -5230 15702 11144
252 5584 15014 10906
255 8900 15204 6734
258 -884 11228 6052
261 -6350 11182 3164
264 -16068 11102 4708
267 -10780 12054 9888
270 -3530 15534 11202
273 9132 15240 8948
276 3764 13546 5278
279 -1916 12518 4080
282 -7336 9214 3030
285 -15658 10560 4904
288 -9438 11606 11874
291 -1736 16398 9660
294 8542 15576 8390
297 2628 14746 3070

-1 g15310 Avg Wavtime 

slip: 1
0 -11584 12278 7168
3 -1772 15260 10212
6 6918 16808 9810
9 182 15688 7604
12 -3762 15382 3572
15 -8586 10762 2366
18 -4736 8552 6048
21 -10184 12658 7032
24 328 15080 10212
27 6078 16912 9274
30 -886 15804 7772
33 -4580 15166 3332
36 -8636 9726 3330
39 -4722 8286 5622
42 -7662 14324 7724
45 5206 16484 10222
48 2156 16468 8626
51 -2436 16114 5876
54 -7880 12334 2970
57 -6718 8046 4954
60 -5812 10446 6624
63 -9508 13922 7102
66 6044 17066 9488
69 370 16190 8336
72 -3362 16092 4758
75 -8812 11096 3384
78 -6160 7920 5566
81 -6616 11440 7052
84 -1366 14824 9432
87 6108 17278 9210
90 -1770 16598 6886
93 -6244 13984 3528
96 -8874 8836 4558
99 -4310 8988 6378
102 -7790 13922 7570
105 1198 15224 9910
108 5422 17208 9062
111 -2442 16584 6222
114 -7372 12724 3478
117 -7850 8342 4792
120 -3988 9828 5998
123 -6112 14220 7536
126 5078 16924 9464
129 110 16578 8574
132 -3374 16256 5454
135 -9102 9732 4054
138 -4820 8658 5402
141 -4546 12420 6830
144 1352 15342 9350
147 3990 17082 8762
150 -1562 16548 8464
153 -4288 15690 5058
156 -8814 10404 4344
159 -4442 9194 5744
162 -3776 13182 7174
165 2820 16220 9060
168 1402 16850 8772
171 -2706 16802 6890
174 -6852 13064 4332
177 -8462 8518 5072
180 -3978 9776 5614
183 -2022 14580 7946
186 4208 17136 8730
189 -1620 17010 8512
192 -3396 16488 6678
195 -7648 11868 4788
198 -6872 8496 5416
201 -3526 10500 5746
204 -102 15108 7984
207 3250 17060 8582
210 -2020 17026 7878
213 -5584 14502 5122
216 -8892 9208 5094
219 -4182 9112 5308
222 -2914 12790 6244
225 2224 15914 8178
228 -718 16684 8554
231 -3550 16382 6110
234 -6766 13294 4822
237 -8552 8628 5242
240 -3922 9652 5598
243 -4530 13690 6776
246 3774 16610 8532
249 -50 16638 8836
252 -4438 15684 5704
255 -8826 10280 5128
258 -5728 8544 5938
261 -2950 11580 6462
264 -434 15154 8178
267 3558 17168 8836
270 -2204 17100 8196
273 -6808 12890 5184
276 -8832 9376 5452
279 -4440 8996 5824
282 -2306 12364 6302
285 1340 15958 7838
288 1682 17096 8540
291 -2656 17126 7182
294 -6184 13660 4842
297 -7066 8378 5234

14 g15431 Avg Wavtime 20.00 var 0.90 freq 50.00 RMSacc 3327.14 mov 14.98 mm/s.

slip: 1
0 -3116 10054 3488
3 -482 14372 7218
6 -1332 16290 10520
9 -3190 17270 10568
12 -4328 15612 6810
15 -6372 11068 4112
18 -4244 11958 828
21 -3118 12650 2816
24 1060 13704 9028
27 -1852 16578 10690
30 -2838 16562 10974
33 -4284 13840 6910
36 -6150 9534 4374
39 -3176 9886 3164
42 -2108 12830 4292
45 1476 15354 8444
48 -1872 17452 9778
51 -4204 16684 6646
54 -6552 11000 5208
57 -4120 10278 2460
60 -2882 12442 2354
63 310 13000 7682
66 -548 16992 9036
69 -1952 17588 10224
72 -2594 16206 9202
75 -6756 10218 5476
78 -4392 10194 2486
81 -2966 11718 4352
84 1388 13796 8496
87 -810 17468 9932
90 -1958 17576 10502
93 -4978 13850 7440
96 -5144 9668 3236
99 -3418 10988 2284
102 -1686 12800 5764
105 1572 15706 9352
108 -1506 17354 10508
111 -2526 17324 8958
114 -6074 13188 5364
117 -5374 9530 2892
120 -2686 11496 1758
123 -488 13650 6152
126 994 16174 9556
129 -2274 17524 10198
132 -4028 15700 6800
135 -7568 10912 4096
138 -4076 9076 2842
141 -2168 10746 4280
144 2228 15638 8246
147 -1726 17058 10972
150 -2982 17178 9044
153 -5342 15186 6538
156 -7292 10388 4574
159 -3688 9650 3622
162 -1970 11820 5532
165 1938 15522 8104
168 -1784 15976 12530
171 -3924 16818 8662
174 -7638 12968 4814
177 -4260 9116 3980
180 -2314 10214 3966
183 -980 14514 6064
186 1576 16068 9498
189 -2750 16176 11272
192 -5762 15104 6052
195 -6394 10152 3712
198 -3340 8422 3796
201 -2970 11588 3484
204 170 15942 5336
207 562 16744 9052
210 -2264 16800 9896
213 -6134 12850 5850
216 -5376 9346 3358
219 -3892 10462 2452
222 -2070 14296 3664
225 2952 16680 6968
228 -1560 16972 10024
231 -3774 15414 10074
234 -7680 11734 4142
237 -4150 9138 3604
240 -4066 11030 3286
243 -1202 14508 5560
246 2068 16854 8704
249 -1202 16688 11092
252 -4308 15634 8608
255 -7140 11752 4742
258 -4040 8648 4528
261 -2716 12762 4820
264 2386 16020 7504
267 -516 16736 10808
270 -2552 16704 10382
273 -6096 14674 5422
276 -5320 9694 4088
279 -4728 10108 3714
282 -1338 13416 5128
285 2776 15926 8132
288 -304 16850 10506
291 -3952 14280 10796
294 -5742 11978 7116
297 -4784 10096 3544

14 g15416 Avg Wavtime 20.01 var 0.24 freq 49.98 RMSacc 2656.40 mov 11.96 mm/s.

slip: 1
0 -6696 9556 5148
3 -2842 9912 4630
6 -1066 13120 5138
9 3174 16106 6740
12 -650 17630 8294
15 -3702 16176 7176
18 -7078 12924 5950
21 -5664 9200 5116
24 -2552 10494 4674
27 -514 13842 5458
30 3316 16404 7302
33 -1334 17730 8560
36 -3400 16632 7574
39 -7920 10398 5434
42 -3162 9284 4808
45 -1576 12160 4960
48 1776 15558 5992
51 646 17196 8310
54 -2546 17434 8492
57 -5694 14326 6476
60 -8124 10914 5678
63 -2940 9764 4796
66 -1152 12970 5188
69 2942 15958 6578
72 -510 17456 8614
75 -2918 17156 8452
78 -6616 13282 6494
81 -6270 9350 5572
84 -2558 10412 4808
87 498 14848 5738
90 2348 16760 7928
93 -2128 17524 8792
96 -4406 15556 7060
99 -8030 10580 5694
102 -5144 9074 5124
105 -2252 11058 4390
108 -72 14428 5260
111 970 17050 7974
114 -2494 17374 8516
117 -5390 14574 6394
120 -7636 9838 5176
123 -3108 9598 4340
126 -1274 12776 4420
129 2738 15778 5962
132 -1644 17446 8608
135 -3504 16436 7616
138 -7760 11698 5894
141 -4782 9090 4932
144 -2550 10232 4400
147 -748 13460 4920
150 3452 16094 6874
153 -1240 17374 8774
156 -4114 15792 7626
159 -8006 10834 6118
162 -3884 9162 5048
165 -1616 12084 4176
168 1358 15190 5688
171 1396 16896 8168
174 -2026 17458 9064
177 -5062 14870 7390
180 -6170 9306 5492
183 -2426 10448 4582
186 -1220 12782 4454
189 2500 15666 6190
192 -64 17018 8586
195 -2456 17316 8640
198 -6314 13786 6786
201 -7286 9502 5568
204 -2116 11146 4470
207 160 14510 5326
210 2902 16474 7586
213 -1684 17458 8820
216 -4214 15946 7522
219 -8148 11040 5934
222 -4244 9260 4724
225 -936 12992 4332
228 2984 15872 5926
231 1744 16656 7796
234 -2026 17454 8532
237 -4938 15158 6920
240 -8204 10250 5594
243 -3292 9548 4540
246 -1248 12526 4412
249 3720 16216 6746
252 -1098 17308 8742
255 -3214 16792 8076
258 -7502 12320 6444
261 -5444 9184 5364
264 -2084 11034 4454
267 130 14396 5240
270 3740 16456 7428
273 -1456 17434 8970
276 -3880 16192 7786
279 -8128 11320 6254
282 -4126 9196 5166
285 -1606 11732 4410
288 746 15040 5408
291 2748 16692 7744
294 -2592 17268 8322
297 -6598 13702 6408

14 g15380 Avg Wavtime 20.01 var 0.46 freq 49.98 RMSacc 2543.31 mov 11.45 mm/s.

slip: 1
0 -7240 10404 6206
3 -3390 9498 4042
6 -1626 12678 3140
9 3000 16084 6470
12 -1078 17048 9862
15 -2994 17048 9252
18 -6764 12574 6928
21 -4712 9220 4654
24 -3028 9890 3374
27 -1152 13260 3026
30 2856 15884 5706
33 -1328 17280 9818
36 -3454 16528 8528
39 -7404 11502 6404
42 -3792 9164 4212
45 -1966 11612 2954
48 560 14766 4478
51 1658 16592 7920
54 -1610 17442 10102
57 -5538 14012 7556
60 -5966 9618 5438
63 -2822 10118 3640
66 -1560 12368 3198
69 1572 15258 5346
72 302 16744 8938
75 -2128 17454 10166
78 -5014 14686 7936
81 -4884 9256 5098
84 -2500 10768 3410
87 -408 14066 4054
90 2706 16358 7044
93 -1318 17278 9984
96 -3358 16712 8682
99 -7336 11716 6536
102 -3180 9422 3740
105 -1316 12618 2852
108 326 14582 4186
111 1898 16578 7434
114 -1574 17370 9802
117 -3996 15910 8036
120 -7366 10798 6136
123 -3388 9288 4124
126 -934 13370 3408
129 2878 16002 6082
132 -774 17086 9476
135 -2818 17228 9394
138 -6576 13078 7250
141 -5030 9328 5174
144 -2584 10666 3554
147 -558 13948 4044
150 2874 16278 6904
153 -1186 17230 9908
156 -3238 16828 8840
159 -7252 11948 6794
162 -3960 9158 4644
165 -2044 11378 3114
168 120 14540 4296
171 2192 16554 7410
174 -2056 17422 9636
177 -5292 14470 7442
180 -6090 9848 5404
183 -2868 9938 3532
186 -1046 13260 3196
189 2646 15862 5836
192 -500 16988 9312
195 -1802 17458 9838
198 -6504 13270 7124
201 -4888 9392 4974
204 -2562 10468 3350
207 -792 13902 3592
210 3004 16234 6624
213 -1052 17148 9896
216 -3162 16856 8996
219 -7372 10554 6120
222 -3362 9376 3972
225 -1682 12486 2980
228 1346 15272 5180
231 462 16736 8580
234 -2074 17464 9792
237 -3782 16244 8404
240 -7554 11140 6368
243 -3020 9764 3784
246 -1340 13152 3246
249 2458 15784 5874
252 -316 16898 9356
255 -2522 17336 9612
258 -6126 13602 7350
261 -5472 9436 5284
264 -2700 10330 3534
267 180 14568 4568
270 1924 16512 7654
273 -1396 17350 9978
276 -4040 15902 8178
279 -7086 12398 6844
282 -4378 9190 4700
285 -2436 11052 3066
288 1144 15126 4924
291 744 16706 8268
294 -1846 17416 9822
297 -4904 14938 7702

14 g15406 Avg Wavtime 20.00 var 0.32 freq 50.01 RMSacc 2403.75 mov 10.82 mm/s.

slip: 1
0 -6442 9420 5254
3 -2770 10274 3106
6 -808 13554 3134
9 3444 16268 5852
12 -936 17238 9204
15 -2816 17122 9056
18 -7936 11022 6458
21 -3854 9240 4472
24 -1892 12138 3024
27 -324 14126 3974
30 3604 16592 6740
33 -1500 17298 9824
36 -3290 16650 8772
39 -7582 11688 6860
42 -3126 9596 4184
45 -1214 12776 3114
48 2270 15660 5318
51 630 17126 8564
54 -2176 17374 9686
57 -5594 14250 7528
60 -6954 9564 5832
63 -2216 11228 3116
66 -18 14294 4086
69 3586 16702 6748
72 -678 17274 8882
75 -2706 17138 9198
78 -6714 13084 7098
81 -6096 9176 5390
84 -2484 10790 3266
87 778 14938 4516
90 2398 16982 7418
93 -1988 17412 9700
96 -4384 15524 8050
99 -7968 10352 6316
102 -3558 9460 4142
105 -1314 12562 2842
108 3592 16294 5726
111 -1070 17276 8970
114 -2118 17336 9614
117 -5298 14498 7556
120 -7270 9646 5766
123 -3006 9994 3574
126 -792 13180 3286
129 3112 16016 5686
132 -1588 17348 9586
135 -3432 16482 8610
138 -7788 11492 6654
141 -4358 9176 4742
144 -1904 11762 3160
147 554 14806 4692
150 2746 16892 7554
153 -1922 17422 9704
156 -4224 15718 8064
159 -7982 10560 6268
162 -3714 9404 4200
165 -1362 12390 3018
168 1640 15458 4924
171 1216 17142 8010
174 -2160 17362 9604
177 -5054 14750 7576
180 -5870 9204 5224
183 -2404 10986 3100
186 -188 13972 3830
189 3684 16504 6416
192 -1534 17294 9398
195 -3302 16544 8798
198 -6130 13600 7332
201 -6520 9334 5664
204 -2072 11618 3170
207 436 14640 4502
210 2858 16822 7436
213 -1716 17364 10002
216 -3858 15972 8462
219 -7806 10834 6658
222 -3812 9406 4584
225 -740 13290 3514
228 3366 16126 5862
231 -504 17264 9082
234 -2572 17050 9550
237 -6518 13224 7162
240 -6182 9158 5484
243 -3348 9810 3914
246 -1168 13036 2982
249 3806 16476 6274
252 -1388 17190 9444
255 -3052 16572 8988
258 -7346 12088 6660
261 -5022 9038 4914
264 -2240 11616 2720
267 376 14556 3968
270 3420 16792 6880
273 -2018 17076 9934
276 -5138 14668 7484
279 -7246 9706 5906
282 -3196 10066 3704
285 -1800 12416 2772
288 1232 15106 4842
291 2298 16908 7978
294 -1932 17072 10350
297 -6310 13584 7352

14 g15446 Avg Wavtime 20.01 var 0.34 freq 49.99 RMSacc 2498.14 mov 11.25 mm/s.

slip: 1
0 -6604 9188 5170
3 -2484 10886 3404
6 -88 14350 3778
9 4300 16728 6294
12 -1248 17606 8940
15 -3482 16622 8096
18 -7718 11610 6414
21 -3486 9684 3932
24 -1252 12958 3048
27 2932 15974 4816
30 1126 17256 7852
33 -1478 17638 8854
36 -4066 15824 7432
39 -8056 10654 6032
42 -3916 9408 4202
45 -732 13628 3226
48 4094 16356 5364
51 -76 17286 8532
54 -2622 17252 8570
57 -6738 13032 6942
60 -6950 9284 5520
63 -2418 10792 3688
66 -372 14188 3858
69 3384 16936 7342
72 -1888 17584 9284
75 -3344 16812 8444
78 -7652 11930 6964
81 -5554 9234 5270
84 -2132 11548 3606
87 408 14798 4312
90 1632 17092 8036
93 -2180 17602 9094
96 -5426 14492 7498
99 -7996 9750 6128
102 -2912 9990 4158
105 -894 13436 3380
108 3634 16182 5350
111 38 17248 8564
114 -3370 16574 8136
117 -7794 11498 6640
120 -7008 9356 5466
123 -2426 10524 3632
126 -302 14030 3336
129 4440 16538 5984
132 -1042 17398 8968
135 -3124 16966 8166
138 -8212 10562 6152
141 -3722 9372 4274
144 -1546 12492 3178
147 1792 15496 4894
150 1888 17050 7996
153 -2166 17674 9026
156 -5120 14758 7414
159 -6544 9284 5254
162 -3122 9734 4080
165 -1066 13196 3194
168 3204 16030 5234
171 298 17152 8484
174 -2470 17494 8754
177 -6194 13634 7134
180 -7280 9436 5594
183 -2066 11484 3482
186 572 14822 4284
189 4010 16870 6964
192 -1646 17660 9192
195 -3858 16026 7908
198 -8114 10860 6478
201 -3950 9340 4600
204 -2268 11008 3656
207 1628 15422 4726
210 2662 17054 7710
213 -2020 17706 9130
216 -4874 15062 7640
219 -8194 10070 6210
222 -3280 9648 4274
225 -1200 13052 3238
228 2838 15890 5058
231 -1078 17462 8912
234 -3134 16948 8290
237 -7538 12086 6784
240 -5526 9196 4968
243 -2220 11258 3392
246 -732 13680 3314
249 4002 16348 5514
252 -1662 17602 9012
255 -3806 16240 7878
258 -8096 11060 6426
261 -4194 9248 4520
264 -1726 12078 3128
267 1218 15216 4380
270 3200 16992 7220
273 -1934 17638 8952
276 -6400 13522 7028
279 -6982 9460 5472
282 -2686 10392 3802
285 -626 13928 3526
288 4246 16458 5848
291 1384 17114 8150
294 -2338 17580 9032
297 -5752 14236 7448

14 g15407 Avg Wavtime 19.97 var 0.34 freq 50.08 RMSacc 2613.39 mov 11.75 mm/s.

slip: 1
0 -7514 11514 6806
3 -3128 9362 5058
6 -1710 12248 4606
9 1778 14694 6490
12 254 15762 9020
15 -2172 16406 9728
18 -5464 13944 7920
21 -6538 9580 6762
24 -2666 10598 5234
27 -896 13576 6044
30 2850 15486 8320
33 -1530 16092 10648
36 -3360 15722 9370
39 -7660 11142 7774
42 -5388 9162 6728
45 -2874 10136 5514
48 236 14008 6478
51 1842 15588 9046
54 -1514 16314 10504
57 -3838 15136 8660
60 -7216 10340 7098
63 -3318 9228 5428
66 -1738 11914 4702
69 1464 14492 6264
72 -826 15788 9808
75 -2326 16218 9172
78 -6726 12412 7124
81 -4264 9066 5476
84 -2658 9460 4610
87 -1242 12444 4232
90 2652 14866 6272
93 -1158 15866 9744
96 -2804 15812 8576
99 -7632 11342 7032
102 -3548 9000 5888
105 -2360 10946 5208
108 -450 13794 6346
111 2092 15466 8662
114 -1608 16076 10466
117 -5766 13710 8396
120 -6074 9546 7230
123 -3284 9590 6280
126 -2400 11512 6258
129 778 14202 7506
132 340 15386 9656
135 -1908 16076 10582
138 -4782 14274 8736
141 -4886 9198 6712
144 -3060 9894 5878
147 -1114 13138 5972
150 2828 15100 8140
153 -984 15678 10582
156 -2956 15700 9846
159 -7196 11574 7936
162 -3244 9098 5774
165 -1950 11700 5208
168 -336 13524 6012
171 2080 15210 8502
174 -1148 15902 10668
177 -3570 15222 9376
180 -7416 10664 7668
183 -3446 9048 5852
186 -1766 12348 5190
189 2458 14642 7258
192 -784 15410 10164
195 -2690 15856 10646
198 -6072 13036 8344
201 -5578 9156 6842
204 -2920 9996 5456
207 48 13760 6420
210 1200 15292 8912
213 -848 15640 10504
216 -2362 15906 9744
219 -6832 11886 7872
222 -4280 8942 6152
225 -2434 10604 4860
228 -470 13338 5846
231 504 15394 9108
234 -1612 15956 10436
237 -4498 14214 8392
240 -6320 9770 6828
243 -3172 9266 5454
246 -1604 12080 5058
249 2376 14508 6918
252 -364 15444 9770
255 -2030 16098 10352
258 -5702 13258 8484
261 -5082 9344 6746
264 -3040 9700 5414
267 -1480 12694 5338
270 2736 14892 7556
273 -946 15588 10504
276 -2436 16070 10270
279 -7186 10648 7874
282 -3558 8890 6054
285 -2130 11246 5002
288 674 13968 6504
291 862 15322 9412
294 -1692 15842 11088
297 -2860 15702 9698

14 g15295 Avg Wavtime 19.97 var 0.41 freq 50.07 RMSacc 2187.08 mov 9.83 mm/s.

slip: 1
0 -7702 5150 11240
3 -6564 6590 13970
6 710 8362 15944
9 7862 8700 16262
12 4562 8500 12556
15 -4926 8166 9520
18 -10784 7248 7502
21 -7414 5512 12096
24 -3912 7858 15064
27 5808 8404 16646
30 7120 8590 14326
33 -444 8864 11120
36 -8898 7972 8772
39 -10278 5530 8746
42 -6572 6726 14212
45 -2304 8166 15568
48 6732 8692 16680
51 5880 8668 13330
54 -2762 9010 10316
57 -9916 7914 8570
60 -9608 5342 9836
63 -6924 6444 14224
66 3436 8484 16376
69 7702 8810 15270
72 2088 8844 11810
75 -7108 8508 9126
78 -10994 6398 8232
81 -7492 5364 12218
84 -4244 7690 15218
87 2182 8428 15866
90 7460 8808 14266
93 200 9062 10736
96 -8484 8318 8398
99 -10846 5748 7994
102 -7364 5788 12318
105 -2668 8206 14810
108 6914 8688 15854
111 4558 8858 11574
114 -5138 8898 8682
117 -11126 7466 7266
120 -8736 5230 10088
123 -5902 7064 14084
126 2862 8572 15470
129 8210 9116 15086
132 5486 8980 12202
135 -6948 8718 8484
138 -11450 6778 7418
141 -8114 5420 11276
144 -4812 7616 14816
147 4794 8574 15952
150 7744 9152 14382
153 762 9260 10924
156 -8290 8532 8536
159 -9754 5344 9430
162 -6972 6428 13720
165 -166 8498 15506
168 7858 8890 16114
171 4884 8822 12296
174 -1316 9226 10322
177 -9360 8226 8530
180 -10454 5556 8892
183 -6330 7154 14412
186 2170 8542 16056
189 8272 8998 15872
192 3552 8820 12232
195 -6292 8384 9350
198 -11504 7186 7640
201 -8382 5500 11062
204 -2634 8318 14902
207 7082 8422 16314
210 7030 8584 13514
213 -1794 8364 10612
216 -7842 8366 8848
219 -11448 6456 7694
222 -8022 5820 11634
225 -4016 8022 14376
228 7972 8684 15694
231 5632 8634 12086
234 -3916 8538 9388
237 -10784 7840 7638
240 -9206 5162 9858
243 -6882 6934 13546
246 1432 8432 15642
249 7740 8800 14456
252 830 8882 11356
255 -8150 8162 9436
258 -11220 7234 8364
261 -8258 5264 11650
264 -6016 7428 14564
267 3588 8334 16320
270 8146 8738 15306
273 -1160 8726 10764
276 -9438 8080 9088
279 -10454 5564 9178
282 -7568 6786 13136
285 -1376 8066 15608
288 7844 8260 16818
291 6460 8234 13918
294 -3108 7998 10720
297 -11424 7142 8074

14 g14698 Avg Wavtime 19.98 var 0.46 freq 50.05 RMSacc 2672.69 mov 12.02 mm/s.

slip: 1
0 -12428 8500 8922
3 -11830 7098 5304
6 -7740 8042 7560
9 1402 6780 12420
12 8692 5972 16676
15 9802 6222 20462
18 -1340 7416 16920
21 -13268 7952 7628
24 -10930 6916 5548
27 -6630 8134 8272
30 4026 6320 14024
33 11726 6016 20376
36 4768 6570 19294
39 -7754 8530 13072
42 -13164 6846 5394
45 -8942 7410 6686
48 -1894 7486 10790
51 9638 6340 18018
54 11466 6448 20826
57 2210 6800 18420
60 -9670 8842 11524
63 -13630 6864 5660
66 -8240 7812 7206
69 586 6948 12170
72 11004 6300 19388
75 7480 6664 19972
78 -4934 7822 15066
81 -12984 8006 7976
84 -11208 6924 5300
87 -7042 8154 7970
90 7052 6132 16146
93 10950 5998 20802
96 5250 6360 19292
99 -7204 8430 13428
102 -13434 7738 6846
105 -10030 7162 5806
108 -5554 8262 8842
111 8762 5960 17204
114 9648 5966 20588
117 -1554 7200 16770
120 -11582 8864 9638
123 -12050 7528 5390
126 -7956 8050 7258
129 -210 7070 11692
132 10188 5834 18216
135 4474 6284 19104
138 -7844 8788 12916
141 -12698 8376 8280
144 -11236 7232 5358
147 -7174 8108 7804
150 2326 6468 12992
153 11358 6034 19840
156 6106 6552 19582
159 -9788 8914 11386
162 -13512 7010 5624
165 -9154 7346 6442
168 -3126 7734 10170
171 8490 6254 17276
174 10400 6398 20938
177 -748 6970 17210
180 -13210 7920 7854
183 -12848 6966 5172
186 -8450 7638 6980
189 -956 7184 11266
192 9952 6148 18394
195 8528 6136 20456
198 -3446 7660 15740
201 -12454 8490 8758
204 -9762 7252 5914
207 -5458 8028 9044
210 5454 5942 14772
213 11098 5454 20188
216 2576 6424 18380
219 -9194 9136 12092
222 -13084 7836 6048
225 -10096 7734 5820
228 -3786 7868 10224
231 7274 5790 15788
234 9780 5222 19578
237 -24 6848 17550
240 -10744 9136 10652
243 -12454 7694 5554
246 -8028 8010 7160
249 2354 6442 13082
252 10924 5806 18986
255 5560 6074 19572
258 -6776 8102 14032
261 -13116 7830 7230
264 -9948 7540 5810
267 -7226 8222 7800
270 860 6890 12522
273 10916 5976 20032
276 3122 5980 19142
279 -8852 8202 12454
282 -12818 7520 6430
285 -8610 8010 6502
288 -3874 8226 10420
291 6722 6132 15844
294 9632 5752 18526
297 -3694 6888 16042

-1 g14683 Avg Wavtime 

slip: 1
0 -10710 5050 9406
3 -13562 3326 5032
6 -10022 5050 7230
9 -44 6916 13518
12 11650 7456 20398
15 8116 7446 20252
18 -5792 6792 12822
21 -13916 3854 6050
24 -12014 3740 5580
27 -6008 6508 10088
30 7930 7336 17880
33 12692 7358 22048
36 9600 7340 21070
39 -8356 6062 11144
42 -14270 3500 5380
45 -11360 4028 6308
48 -3892 6592 11576
51 9966 7386 19280
54 12334 7140 22214
57 3194 7376 17878
60 -10222 5232 9606
63 -13124 3338 5156
66 -8272 5688 8636
69 4358 6962 16010
72 12650 7344 21534
75 8744 7166 20784
78 -4750 6738 13292
81 -11786 4650 8112
84 -13620 3502 4882
87 -6582 6280 9660
90 7050 7226 17392
93 12968 7176 21948
96 6482 7242 19580
99 -7508 6428 11370
102 -14146 3708 5500
105 -11438 3960 6146
108 164 6852 13804
111 11834 7588 20506
114 10828 7230 21694
117 -944 7386 15498
120 -12512 4596 7642
123 -14158 3468 5186
126 -10568 4466 6936
129 -1828 6726 12728
132 12816 7376 21336
135 9268 7214 20998
138 -4000 7036 13694
141 -13378 3966 6650
144 -12568 3436 5506
147 -7088 6076 9438
150 6386 7234 17068
153 12280 7196 22076
156 3194 7356 17752
159 -10480 5396 9396
162 -13826 3216 5244
165 -11754 3700 6074
168 -5238 6328 10760
171 8762 7338 18466
174 12758 7082 22162
177 64 7238 16122
180 -11936 4588 8172
183 -13416 3186 5168
186 -9050 5166 8178
189 2534 6888 15026
192 12770 7464 21120
195 9764 7232 21150
198 -3106 7120 14246
201 -14074 3684 5456
204 -11328 3970 6358
207 -7590 5810 9218
210 5524 7206 16618
213 13166 7398 21698
216 7824 7276 20198
219 -6044 6590 12524
222 -13970 3778 5916
225 -10298 4256 7112
228 -1744 6658 12798
231 10988 7772 19824
234 11748 7112 21982
237 998 7308 16602
240 -11666 4920 8412
243 -13424 3198 5100
246 -6996 5846 9520
249 6484 7228 17048
252 12186 7694 20676
255 10128 7172 21342
258 -2082 7098 14850
261 -12984 4258 7188
264 -12688 3060 5420
267 -7968 5390 8944
270 8874 7432 18524
273 12894 7082 22206
276 4874 7254 18666
279 -9242 5704 10350
282 -13962 3404 5276
285 -10286 4006 7004
288 -2598 6500 12322
291 12454 7666 20990
294 11960 7064 22090
297 2060 7244 17140

-1 g14709 Avg Wavtime 

slip: 1
0 -7716 5094 8964
3 3628 7046 15200
6 13068 7694 21550
9 5192 7332 18736
12 -8420 5996 11240
15 -13534 3844 6660
18 -11664 2850 5920
21 -6482 5718 9930
24 6662 7258 16840
27 13234 7778 21412
30 2692 7362 17662
33 -10590 5348 9654
36 -13442 2826 5376
39 -9006 4138 7922
42 -630 6744 13040
45 11934 7824 19946
48 11090 7366 21364
51 -5000 6806 13554
54 -13606 3592 6430
57 -12664 2678 5482
60 -8124 4860 8702
63 2452 6900 14584
66 12798 7844 20652
69 9256 7338 20634
72 -3174 7120 14694
75 -13666 3152 5768
78 -10302 3356 6896
81 -4384 6370 11070
84 9686 7630 18534
87 12438 7628 21604
90 3408 7328 18114
93 -9892 5578 10062
96 -13434 2800 5414
99 -9432 3916 7672
102 -1788 6604 12526
105 11352 7806 19598
108 11072 7502 21268
111 812 7306 16950
114 -11554 4842 8710
117 -12788 2662 5434
120 -8362 4602 8522
123 6626 7262 16776
126 13154 7710 21444
129 6238 7280 19398
132 -6744 6478 12490
135 -13370 3294 6012
138 -10356 3186 6688
141 -7268 5346 9238
144 9000 7564 18050
147 12728 7528 21656
150 3692 7204 18434
153 -9072 5816 10762
156 -13308 2938 5528
159 -9658 3804 7398
162 -2376 6610 12112
165 10732 7878 19118
168 8792 7292 20548
171 -3284 7008 14840
174 -12980 4070 6978
177 -11650 2902 5820
180 -6530 5362 9664
183 5644 7214 16102
186 12016 8020 19942
189 9938 7472 20846
192 -5964 6740 12980
195 -13510 3560 6056
198 -10428 2956 6638
201 -4864 5934 10718
204 8214 7446 17508
207 12642 7744 21412
210 4434 7274 18860
213 -11516 4978 8698
216 -12464 2694 5486
219 -7684 4366 8724
222 1576 6934 13970
225 12120 8018 20100
228 11354 7704 21160
231 1970 7426 17774
234 -10394 5418 9706
237 -11500 2768 5822
240 -6416 4904 9660
243 4456 7326 15296
246 12530 8120 20782
249 6704 7412 19714
252 -5164 7062 13688
255 -13158 3676 6438
258 -8544 3244 7964
261 -2654 6970 11680
264 10838 7886 19080
267 10862 7870 21040
270 4792 7484 19074
273 -7672 6454 11936
276 -13070 3006 5930
279 -9884 3416 7340
282 620 6984 13426
285 12336 7766 20156
288 9448 7672 20552
291 -1680 7242 15934
294 -11866 4034 8020
297 -12258 3220 5604

-1 g14653 Avg Wavtime 

slip: 1
0 -32768 10044 1722
3 -32768 14788 1242
6 -32768 15114 5986
9 -32768 14232 9974
12 -32768 15196 10552
15 -32768 14610 13768
18 -32768 14020 14944
21 -32768 15072 16536
24 -32768 15874 18474
27 -29948 16410 20486
30 -27468 350 32767
33 -26844 3880 30338
36 -24242 7870 27356
39 -24280 10550 24356
42 -23008 5306 26266
45 -23650 6876 23354
48 -19936 5436 22324
51 -19912 3974 21044
54 -19036 3414 18640
57 -18630 3082 16556
60 -20894 3810 14020
63 -20228 4544 13004
66 -19102 5658 11360
69 -17094 5510 10
