EESchema Schematic File Version 2
LIBS:wholehglogger-rescue
LIBS:power
LIBS:device
LIBS:transistors
LIBS:conn
LIBS:linear
LIBS:regul
LIBS:74xx
LIBS:cmos4000
LIBS:adc-dac
LIBS:memory
LIBS:xilinx
LIBS:microcontrollers
LIBS:dsp
LIBS:microchip
LIBS:analog_switches
LIBS:motorola
LIBS:texas
LIBS:intel
LIBS:audio
LIBS:interface
LIBS:digital-audio
LIBS:philips
LIBS:display
LIBS:cypress
LIBS:siliconi
LIBS:opto
LIBS:atmel
LIBS:contrib
LIBS:valves
LIBS:teensy_3.1
LIBS:maxim
LIBS:microoled2
LIBS:wholehglogger-cache
EELAYER 25 0
EELAYER END
$Descr A4 11693 8268
encoding utf-8
Sheet 1 1
Title ""
Date ""
Rev ""
Comp ""
Comment1 ""
Comment2 ""
Comment3 ""
Comment4 ""
$EndDescr
$Comp
L Teensy_3.1 U3
U 1 1 569FC742
P 4450 2500
F 0 "U3" H 4500 3550 60  0000 C CNN
F 1 "Teensy_3.1" H 4550 4000 60  0000 C CNN
F 2 "circuits:Teensy-3.1" H 4550 2500 60  0001 C CNN
F 3 "" H 4550 2500 60  0000 C CNN
	1    4450 2500
	1    0    0    -1  
$EndComp
$Comp
L DS18B20 U7
U 1 1 569FCA79
P 12850 1150
F 0 "U7" H 12700 1400 50  0000 C CNN
F 1 "DS18B20" H 12850 900 50  0000 C CNN
F 2 "Pin_Headers:Pin_Header_Straight_1x03" H 12700 1400 50  0001 C CNN
F 3 "" H 12700 1400 50  0000 C CNN
	1    12850 1150
	1    0    0    -1  
$EndComp
$Comp
L GND #PWR01
U 1 1 569FCBEC
P 3300 1200
F 0 "#PWR01" H 3300 950 50  0001 C CNN
F 1 "GND" H 3300 1050 50  0000 C CNN
F 2 "" H 3300 1200 50  0000 C CNN
F 3 "" H 3300 1200 50  0000 C CNN
	1    3300 1200
	0    1    1    0   
$EndComp
Text GLabel 5650 2700 2    60   BiDi ~ 0
Dallas
Text GLabel 9350 1250 0    60   BiDi ~ 0
Dallas
Text GLabel 3300 3000 0    60   Output ~ 0
MOSI
Text GLabel 3300 3150 0    60   Input ~ 0
MISO
Text GLabel 5650 3150 2    60   Output ~ 0
SCK
Text GLabel 3300 2850 0    60   Input ~ 0
OLEDrst
Text GLabel -1500 3050 2    60   Input ~ 0
OLEDrst
Text GLabel -1500 3200 2    60   Input ~ 0
OLEDdc
Text GLabel -1500 2900 2    60   Input ~ 0
OLEDcs
Text GLabel 3300 1800 0    60   Input ~ 0
OLEDdc
Text GLabel 3300 2700 0    60   Input ~ 0
OLEDcs
Text GLabel -1500 3650 2    60   Input ~ 0
MOSI
Text GLabel -1500 3500 2    60   Input ~ 0
SCK
$Comp
L GND #PWR02
U 1 1 569FD82E
P -1500 3950
F 0 "#PWR02" H -1500 3700 50  0001 C CNN
F 1 "GND" H -1500 3800 50  0000 C CNN
F 2 "" H -1500 3950 50  0000 C CNN
F 3 "" H -1500 3950 50  0000 C CNN
	1    -1500 3950
	0    -1   -1   0   
$EndComp
Text GLabel 5650 1500 2    60   Output ~ 0
3V3
Text GLabel -1500 3800 2    60   Input ~ 0
3V3
Text GLabel 5650 1950 2    60   Input ~ 0
baroINT
Text GLabel 5650 2550 2    60   Input ~ 0
windINT
Text GLabel 5650 2250 2    60   Output ~ 0
SCL0
Text GLabel 5650 2400 2    60   BiDi ~ 0
SDA0
Text GLabel 3300 1350 0    60   Input ~ 0
RX1
Text GLabel 3300 1500 0    60   Input ~ 0
TX1
Text GLabel 3300 1650 0    60   Input ~ 0
SDcs
Text GLabel 5650 3000 2    60   Input ~ 0
lpinREAD
Text GLabel 5650 2850 2    60   Output ~ 0
lpinPOWER
Text GLabel 5650 1800 2    60   Output ~ 0
lpinLED
Text GLabel 5650 1650 2    60   Input ~ 0
lpinBUTTON
$Comp
L SDcard U1
U 1 1 56A0CD75
P 1800 1350
F 0 "U1" H 1600 1200 60  0000 C CNN
F 1 "SDcard" H 1550 1400 60  0000 C CNN
F 2 "circuits:SDcardSupport3" H 1800 1350 60  0001 C CNN
F 3 "" H 1800 1350 60  0000 C CNN
	1    1800 1350
	1    0    0    -1  
$EndComp
Text GLabel 2300 1950 2    60   Input ~ 0
SDcs
Text GLabel 2300 1500 2    60   Input ~ 0
SCK
Text GLabel 2300 1800 2    60   Input ~ 0
MOSI
Text GLabel 2300 1200 2    60   Output ~ 0
MISO
Text GLabel 2300 1650 2    60   Input ~ 0
3V3
$Comp
L GND #PWR03
U 1 1 56A0CE89
P 2450 1350
F 0 "#PWR03" H 2450 1100 50  0001 C CNN
F 1 "GND" H 2450 1200 50  0000 C CNN
F 2 "" H 2450 1350 50  0000 C CNN
F 3 "" H 2450 1350 50  0000 C CNN
	1    2450 1350
	0    -1   -1   0   
$EndComp
$Comp
L adafruitGPS U6
U 1 1 56A0D142
P -2050 5550
F 0 "U6" H -1900 5400 60  0000 C CNN
F 1 "adafruitGPS" H -1850 5650 60  0000 C CNN
F 2 "Pin_Headers:Pin_Header_Straight_1x09" H -2050 5550 60  0001 C CNN
F 3 "" H -2050 5550 60  0000 C CNN
	1    -2050 5550
	-1   0    0    1   
$EndComp
Text GLabel -1350 5400 2    60   Input ~ 0
RX1
Text GLabel -1350 5250 2    60   Input ~ 0
TX1
Text GLabel -1350 4950 2    60   Input ~ 0
3V3
NoConn ~ 2300 1050
Text GLabel 5800 1200 2    60   Input ~ 0
Vin
Text GLabel 9150 1400 0    60   Input ~ 0
3V3
$Comp
L R R2
U 1 1 56A10E0B
P 9600 1450
F 0 "R2" V 9680 1450 50  0000 C CNN
F 1 "4.7k" V 9600 1450 50  0000 C CNN
F 2 "Resistors_ThroughHole:Resistor_Horizontal_RM10mm" V 9530 1450 50  0001 C CNN
F 3 "" H 9600 1450 50  0000 C CNN
	1    9600 1450
	0    1    1    0   
$EndComp
NoConn ~ -1450 4800
NoConn ~ -1450 5550
NoConn ~ -1450 5700
NoConn ~ -1450 5850
NoConn ~ -1450 6000
Text GLabel -1500 3350 2    60   Output ~ 0
MISO
$Comp
L INA125P U10
U 1 1 56A200F2
P 9650 4800
F 0 "U10" H 9650 4650 60  0000 C CNN
F 1 "INA125P" V 9700 5000 60  0000 C CNN
F 2 "Housings_DIP:DIP-16_W7.62mm_LongPads" H 11100 5000 60  0001 C CNN
F 3 "" H 11100 5000 60  0000 C CNN
	1    9650 4800
	1    0    0    -1  
$EndComp
$Comp
L R R6
U 1 1 56A201A7
P 9600 5650
F 0 "R6" V 9680 5650 50  0000 C CNN
F 1 "2.2k" V 9600 5650 50  0000 C CNN
F 2 "Resistors_ThroughHole:Resistor_Horizontal_RM10mm" V 9530 5650 50  0001 C CNN
F 3 "" H 9600 5650 50  0000 C CNN
	1    9600 5650
	0    1    1    0   
$EndComp
Text GLabel 8050 4100 0    60   Input ~ 0
3V3
$Comp
L R R3
U 1 1 56A206CC
P 8150 4350
F 0 "R3" V 8230 4350 50  0000 C CNN
F 1 "10k" V 8150 4350 50  0000 C CNN
F 2 "Resistors_ThroughHole:Resistor_Horizontal_RM10mm" V 8080 4350 50  0001 C CNN
F 3 "" H 8150 4350 50  0000 C CNN
	1    8150 4350
	1    0    0    -1  
$EndComp
$Comp
L R R5
U 1 1 56A20705
P 8500 5400
F 0 "R5" V 8580 5400 50  0000 C CNN
F 1 "10k" V 8500 5400 50  0000 C CNN
F 2 "Resistors_ThroughHole:Resistor_Horizontal_RM10mm" V 8430 5400 50  0001 C CNN
F 3 "" H 8500 5400 50  0000 C CNN
	1    8500 5400
	1    0    0    -1  
$EndComp
$Comp
L R R4
U 1 1 56A20736
P 8150 5400
F 0 "R4" V 8230 5400 50  0000 C CNN
F 1 "10k" V 8150 5400 50  0000 C CNN
F 2 "Resistors_ThroughHole:Resistor_Horizontal_RM10mm" V 8080 5400 50  0001 C CNN
F 3 "" H 8150 5400 50  0000 C CNN
	1    8150 5400
	1    0    0    -1  
$EndComp
$Comp
L GND #PWR06
U 1 1 56A20C84
P 8300 5800
F 0 "#PWR06" H 8300 5550 50  0001 C CNN
F 1 "GND" H 8300 5650 50  0000 C CNN
F 2 "" H 8300 5800 50  0000 C CNN
F 3 "" H 8300 5800 50  0000 C CNN
	1    8300 5800
	1    0    0    -1  
$EndComp
Text GLabel 10500 4850 2    60   Output ~ 0
windINT
$Comp
L GND #PWR07
U 1 1 56A2133B
P 10350 4700
F 0 "#PWR07" H 10350 4450 50  0001 C CNN
F 1 "GND" H 10350 4550 50  0000 C CNN
F 2 "" H 10350 4700 50  0000 C CNN
F 3 "" H 10350 4700 50  0000 C CNN
	1    10350 4700
	-1   0    0    1   
$EndComp
NoConn ~ 10200 4550
NoConn ~ 10200 4400
NoConn ~ 10200 4100
$Comp
L GND #PWR08
U 1 1 56A214F0
P 8750 4400
F 0 "#PWR08" H 8750 4150 50  0001 C CNN
F 1 "GND" H 8750 4250 50  0000 C CNN
F 2 "" H 8750 4400 50  0000 C CNN
F 3 "" H 8750 4400 50  0000 C CNN
	1    8750 4400
	1    0    0    -1  
$EndComp
$Comp
L HTU21D U8
U 1 1 56A220FE
P 14800 3400
F 0 "U8" H 14600 3350 60  0000 C CNN
F 1 "HTU21D" V 14600 3650 60  0000 C CNN
F 2 "Pin_Headers:Pin_Header_Straight_1x04" H 14800 3400 60  0001 C CNN
F 3 "" H 14800 3400 60  0000 C CNN
	1    14800 3400
	1    0    0    -1  
$EndComp
$Comp
L BNO055 U9
U 1 1 56A22375
P 12900 6450
F 0 "U9" H 12950 6300 60  0000 C CNN
F 1 "BNO055" V 12950 6650 60  0000 C CNN
F 2 "Pin_Headers:Pin_Header_Straight_1x06" H 12900 6450 60  0001 C CNN
F 3 "" H 12900 6450 60  0000 C CNN
	1    12900 6450
	1    0    0    -1  
$EndComp
Text GLabel 13900 3050 0    60   Input ~ 0
3V3
$Comp
L GND #PWR09
U 1 1 56A225F8
P 13900 3200
F 0 "#PWR09" H 13900 2950 50  0001 C CNN
F 1 "GND" H 13900 3050 50  0000 C CNN
F 2 "" H 13900 3200 50  0000 C CNN
F 3 "" H 13900 3200 50  0000 C CNN
	1    13900 3200
	0    1    1    0   
$EndComp
Text GLabel 13900 3500 0    60   Input ~ 0
SCL0
Text GLabel 13900 3350 0    60   BiDi ~ 0
SDA0
NoConn ~ 12450 6200
NoConn ~ 12450 6800
$Comp
L GND #PWR010
U 1 1 56A2384A
P -1350 5100
F 0 "#PWR010" H -1350 4850 50  0001 C CNN
F 1 "GND" H -1350 4950 50  0000 C CNN
F 2 "" H -1350 5100 50  0000 C CNN
F 3 "" H -1350 5100 50  0000 C CNN
	1    -1350 5100
	0    -1   -1   0   
$EndComp
$Comp
L R R7
U 1 1 56A24569
P 14000 3750
F 0 "R7" V 14080 3750 50  0000 C CNN
F 1 "4.7k" V 14000 3750 50  0000 C CNN
F 2 "Resistors_ThroughHole:Resistor_Horizontal_RM10mm" V 13930 3750 50  0001 C CNN
F 3 "" H 14000 3750 50  0000 C CNN
	1    14000 3750
	-1   0    0    1   
$EndComp
$Comp
L R R8
U 1 1 56A24786
P 14150 3750
F 0 "R8" V 14230 3750 50  0000 C CNN
F 1 "4.7k" V 14150 3750 50  0000 C CNN
F 2 "Resistors_ThroughHole:Resistor_Horizontal_RM10mm" V 14080 3750 50  0001 C CNN
F 3 "" H 14150 3750 50  0000 C CNN
	1    14150 3750
	1    0    0    -1  
$EndComp
$Comp
L MLX90614 U11
U 1 1 56A24C99
P 13250 4650
F 0 "U11" H 13350 4700 60  0000 C CNN
F 1 "MLX90614" H 13250 4800 60  0000 C CNN
F 2 "Pin_Headers:Pin_Header_Straight_2x02" H 13250 4650 60  0001 C CNN
F 3 "" H 13250 4650 60  0000 C CNN
	1    13250 4650
	1    0    0    -1  
$EndComp
Text GLabel 13800 4750 2    60   Input ~ 0
3V3
$Comp
L GND #PWR011
U 1 1 56A24F8D
P 13800 4350
F 0 "#PWR011" H 13800 4100 50  0001 C CNN
F 1 "GND" H 13800 4200 50  0000 C CNN
F 2 "" H 13800 4350 50  0000 C CNN
F 3 "" H 13800 4350 50  0000 C CNN
	1    13800 4350
	0    -1   -1   0   
$EndComp
Text GLabel 12700 4700 0    60   BiDi ~ 0
SDA0
Text GLabel 12700 4400 0    60   Input ~ 0
SCL0
$Comp
L C C1
U 1 1 56A25437
P 13700 4550
F 0 "C1" H 13725 4650 50  0000 L CNN
F 1 "0.1uF" H 13725 4450 50  0000 L CNN
F 2 "Capacitors_ThroughHole:C_Disc_D6_P5" H 13738 4400 50  0001 C CNN
F 3 "" H 13700 4550 50  0000 C CNN
	1    13700 4550
	1    0    0    -1  
$EndComp
$Comp
L Photores R9
U 1 1 56A258A0
P 5000 6250
F 0 "R9" V 5080 6250 50  0000 C CNN
F 1 "Photores" V 5210 6250 50  0000 C TNN
F 2 "Resistors_ThroughHole:Resistor_Horizontal_RM10mm" V 4930 6250 50  0001 C CNN
F 3 "" H 5000 6250 50  0000 C CNN
	1    5000 6250
	0    1    1    0   
$EndComp
$Comp
L R R10
U 1 1 56A25944
P 5500 6250
F 0 "R10" V 5580 6250 50  0000 C CNN
F 1 "10k" V 5500 6250 50  0000 C CNN
F 2 "Resistors_ThroughHole:Resistor_Horizontal_RM10mm" V 5430 6250 50  0001 C CNN
F 3 "" H 5500 6250 50  0000 C CNN
	1    5500 6250
	0    1    1    0   
$EndComp
Text GLabel 5650 6000 1    60   Input ~ 0
lpinPOWER
$Comp
L GND #PWR012
U 1 1 56A25C09
P 4750 5950
F 0 "#PWR012" H 4750 5700 50  0001 C CNN
F 1 "GND" H 4750 5800 50  0000 C CNN
F 2 "" H 4750 5950 50  0000 C CNN
F 3 "" H 4750 5950 50  0000 C CNN
	1    4750 5950
	-1   0    0    1   
$EndComp
Text GLabel 5300 5950 1    60   Output ~ 0
lpinREAD
$Comp
L SW_PUSH SW1
U 1 1 56A26711
P 6450 7100
F 0 "SW1" H 6600 7210 50  0000 C CNN
F 1 "SW_PUSH" H 6450 7020 50  0000 C CNN
F 2 "circuits:pressswitch" H 6450 7100 50  0001 C CNN
F 3 "" H 6450 7100 50  0000 C CNN
	1    6450 7100
	1    0    0    -1  
$EndComp
Text GLabel 5800 6900 1    60   Output ~ 0
lpinBUTTON
Text GLabel 6750 6850 1    60   Input ~ 0
Vin
Text GLabel 7100 6000 1    60   Input ~ 0
lpinLED
$Comp
L Led_Small D1
U 1 1 56A283C2
P 7200 6250
F 0 "D1" H 7150 6375 50  0000 L CNN
F 1 "Led_Small" H 7025 6150 50  0000 L CNN
F 2 "LEDs:LED-5MM" V 7200 6250 50  0001 C CNN
F 3 "" V 7200 6250 50  0000 C CNN
	1    7200 6250
	-1   0    0    1   
$EndComp
$Comp
L GND #PWR014
U 1 1 56A2843C
P 7300 5900
F 0 "#PWR014" H 7300 5650 50  0001 C CNN
F 1 "GND" H 7300 5750 50  0000 C CNN
F 2 "" H 7300 5900 50  0000 C CNN
F 3 "" H 7300 5900 50  0000 C CNN
	1    7300 5900
	-1   0    0    1   
$EndComp
NoConn ~ 3450 2100
NoConn ~ 5450 1350
NoConn ~ 5450 2100
NoConn ~ 3450 2250
NoConn ~ 13400 6200
NoConn ~ 13400 6500
NoConn ~ 13400 6650
Text GLabel 3300 2400 0    60   Input ~ 0
RX3
Text GLabel 3300 2550 0    60   Output ~ 0
TX3
$Comp
L RJ22 U12
U 1 1 56E1AA18
P 10400 1150
F 0 "U12" H 10350 1150 60  0000 C CNN
F 1 "RJ22" H 10350 1150 60  0000 C CNN
F 2 "circuits:RJ22" H 10350 1150 60  0001 C CNN
F 3 "" H 10350 1150 60  0000 C CNN
	1    10400 1150
	0    -1   -1   0   
$EndComp
$Comp
L GND #PWR016
U 1 1 56E1B01B
P 9600 1150
F 0 "#PWR016" H 9600 900 50  0001 C CNN
F 1 "GND" H 9600 1000 50  0000 C CNN
F 2 "" H 9600 1150 50  0000 C CNN
F 3 "" H 9600 1150 50  0000 C CNN
	1    9600 1150
	0    1    1    0   
$EndComp
NoConn ~ 3450 1950
Wire Wire Line
	9350 1250 9900 1250
Wire Wire Line
	5650 1800 5450 1800
Wire Wire Line
	5650 3150 5450 3150
Wire Wire Line
	3450 3150 3300 3150
Wire Wire Line
	3300 3000 3450 3000
Wire Wire Line
	3300 2700 3450 2700
Wire Wire Line
	3450 2850 3300 2850
Wire Wire Line
	-1500 2900 -1600 2900
Wire Wire Line
	-1500 3050 -1600 3050
Wire Wire Line
	-1500 3200 -1600 3200
Wire Wire Line
	-1500 3350 -1600 3350
Wire Wire Line
	-1500 3500 -1600 3500
Wire Wire Line
	-1500 3650 -1600 3650
Wire Wire Line
	5650 1500 5450 1500
Wire Wire Line
	-1500 3800 -1600 3800
Wire Wire Line
	5650 2250 5450 2250
Wire Wire Line
	5450 2400 5650 2400
Wire Wire Line
	5450 2550 5650 2550
Wire Wire Line
	5450 2700 5650 2700
Wire Wire Line
	3450 1350 3300 1350
Wire Wire Line
	3450 1500 3300 1500
Wire Wire Line
	3450 1650 3300 1650
Wire Wire Line
	5650 1950 5450 1950
Wire Wire Line
	5650 2850 5450 2850
Wire Wire Line
	5650 3000 5450 3000
Wire Wire Line
	5450 1650 5650 1650
Wire Wire Line
	2200 1050 2300 1050
Wire Wire Line
	2300 1200 2200 1200
Wire Wire Line
	2300 1500 2200 1500
Wire Wire Line
	2200 1650 2300 1650
Wire Wire Line
	-1450 5400 -1350 5400
Wire Wire Line
	-1350 5250 -1450 5250
Wire Wire Line
	-1450 4950 -1350 4950
Wire Wire Line
	2200 1800 2300 1800
Wire Wire Line
	2200 1950 2300 1950
Wire Wire Line
	9450 1450 9450 1250
Connection ~ 9450 1250
Wire Wire Line
	5800 1200 5450 1200
Wire Wire Line
	8900 4100 8900 4250
Wire Wire Line
	8900 4250 9100 4250
Connection ~ 8900 4100
Wire Wire Line
	10200 5150 10200 5650
Wire Wire Line
	10200 5650 9750 5650
Wire Wire Line
	9100 5150 9100 5650
Wire Wire Line
	9100 5650 9450 5650
Wire Wire Line
	8150 5550 8500 5550
Wire Wire Line
	8300 5550 8300 5800
Connection ~ 8300 5550
Wire Wire Line
	8500 3200 8500 5250
Wire Wire Line
	10200 4850 10500 4850
Wire Wire Line
	10200 5000 10300 5000
Wire Wire Line
	10300 5000 10300 4850
Connection ~ 10300 4850
Wire Wire Line
	10200 4700 10350 4700
Wire Wire Line
	10200 4250 10350 4250
Wire Wire Line
	10350 4250 10350 3850
Wire Wire Line
	10350 3850 9000 3850
Wire Wire Line
	9000 3850 9000 4550
Wire Wire Line
	9000 4550 9100 4550
Wire Wire Line
	8750 4400 9100 4400
Wire Wire Line
	9100 4700 8900 4700
Wire Wire Line
	8900 4700 8900 4400
Connection ~ 8900 4400
Wire Wire Line
	8500 5000 9100 5000
Wire Wire Line
	8150 4850 9100 4850
Wire Wire Line
	12450 6050 12250 6050
Wire Wire Line
	12450 6500 12250 6500
Wire Wire Line
	12450 6650 12250 6650
Wire Wire Line
	13900 3050 14200 3050
Wire Wire Line
	13900 3350 14200 3350
Wire Wire Line
	13900 3500 14200 3500
Wire Wire Line
	-1450 5100 -1350 5100
Wire Wire Line
	14200 3200 13900 3200
Wire Wire Line
	14000 3050 14000 2900
Wire Wire Line
	14000 2900 13450 2900
Wire Wire Line
	13450 2900 13450 3900
Wire Wire Line
	13450 3900 14150 3900
Connection ~ 14000 3050
Connection ~ 14000 3900
Wire Wire Line
	14000 3600 14000 3500
Connection ~ 14000 3500
Wire Wire Line
	14150 3600 14150 3350
Connection ~ 14150 3350
Wire Wire Line
	12700 4700 12850 4700
Wire Wire Line
	12700 4400 12850 4400
Wire Wire Line
	5650 6000 5650 6250
Wire Wire Line
	5250 6250 5350 6250
Wire Wire Line
	5300 5950 5300 6250
Connection ~ 5300 6250
Wire Wire Line
	4750 5950 4750 6250
Wire Wire Line
	3450 1200 3300 1200
Wire Wire Line
	6750 6850 6750 7100
Wire Wire Line
	7300 5900 7300 6250
Wire Wire Line
	7100 6000 7100 6250
Wire Wire Line
	13650 4350 13800 4350
Wire Wire Line
	13650 4350 13650 4400
Wire Wire Line
	13650 4700 13650 4750
Wire Wire Line
	13650 4750 13800 4750
Wire Wire Line
	13700 4700 13700 4750
Connection ~ 13700 4750
Wire Wire Line
	13700 4400 13700 4350
Connection ~ 13700 4350
Wire Wire Line
	12450 6350 12200 6350
Wire Wire Line
	-1600 3950 -1500 3950
Wire Wire Line
	8050 4100 9100 4100
Wire Wire Line
	13400 6350 13550 6350
Wire Wire Line
	13550 6350 13550 5800
Wire Wire Line
	13550 5800 12450 5800
Wire Wire Line
	12450 5800 12450 6050
Wire Wire Line
	3450 2400 3300 2400
Wire Wire Line
	3450 2550 3300 2550
Wire Wire Line
	8150 4500 8150 5250
Connection ~ 8150 4850
Connection ~ 8500 5000
Wire Wire Line
	2200 1350 2450 1350
Connection ~ 8150 4100
Wire Wire Line
	9150 1400 9350 1400
Wire Wire Line
	9350 1400 9350 1350
Wire Wire Line
	9350 1350 9900 1350
Wire Wire Line
	9750 1450 9750 1350
Connection ~ 9750 1350
Wire Wire Line
	9600 1150 9900 1150
Wire Wire Line
	3450 1800 3300 1800
Wire Wire Line
	8150 4200 8150 4100
Wire Wire Line
	8400 3400 8400 4100
Connection ~ 8400 4100
$Comp
L RJ22 U13
U 1 1 56E20D13
P 10150 2150
F 0 "U13" H 10100 2150 60  0000 C CNN
F 1 "RJ22" H 10100 2150 60  0000 C CNN
F 2 "circuits:RJ22" H 10100 2150 60  0001 C CNN
F 3 "" H 10100 2150 60  0000 C CNN
	1    10150 2150
	0    -1   -1   0   
$EndComp
Text GLabel 9450 2250 0    60   Input ~ 0
RX3
Text GLabel 9450 2350 0    60   Input ~ 0
TX3
Text GLabel 9450 2050 0    60   Input ~ 0
3V3
$Comp
L GND #PWR017
U 1 1 56E2155B
P 9450 2150
F 0 "#PWR017" H 9450 1900 50  0001 C CNN
F 1 "GND" H 9450 2000 50  0000 C CNN
F 2 "" H 9450 2150 50  0000 C CNN
F 3 "" H 9450 2150 50  0000 C CNN
	1    9450 2150
	0    1    1    0   
$EndComp
Wire Wire Line
	9450 2050 9650 2050
Wire Wire Line
	9450 2150 9650 2150
Wire Wire Line
	9450 2250 9650 2250
Wire Wire Line
	9450 2350 9650 2350
$Comp
L 2pinjack J1
U 1 1 56E238C3
P 9050 3150
F 0 "J1" H 9050 3150 60  0000 C CNN
F 1 "2pinjack" H 9050 3150 60  0000 C CNN
F 2 "circuits:AudioJack2" H 9050 3150 60  0001 C CNN
F 3 "" H 9050 3150 60  0000 C CNN
	1    9050 3150
	1    0    0    -1  
$EndComp
Wire Wire Line
	8500 3200 8650 3200
Wire Wire Line
	8400 3400 8650 3400
NoConn ~ 350  1000
NoConn ~ 350  1150
NoConn ~ 350  1300
NoConn ~ 350  1450
NoConn ~ 350  1600
NoConn ~ 350  1750
NoConn ~ 350  1900
$Comp
L MicroOLEDsupportpins U2
U 1 1 56E200C6
P -1750 3550
F 0 "U2" H -1500 3150 60  0000 C CNN
F 1 "MicroOLEDsupportpins" H -1850 3150 60  0000 C CNN
F 2 "circuits:OLEDsupport3" H -1850 3400 60  0001 C CNN
F 3 "" H -1850 3400 60  0000 C CNN
	1    -1750 3550
	0    1    1    0   
$EndComp
NoConn ~ -2500 2900
NoConn ~ -2500 3050
NoConn ~ -2500 3200
NoConn ~ -2500 3350
NoConn ~ -2500 3500
NoConn ~ -2500 3650
NoConn ~ -2500 3800
NoConn ~ -2500 3950
NoConn ~ 10550 800 
NoConn ~ 10550 1600
NoConn ~ 9900 1050
NoConn ~ 11300 1850
NoConn ~ 10300 2600
$Comp
L I2Csocket U14
U 1 1 56E934F8
P 10800 3300
F 0 "U14" H 10600 3250 60  0000 C CNN
F 1 "I2Csocket" V 10600 3550 60  0000 C CNN
F 2 "Pin_Headers:Pin_Header_Straight_1x04" H 10800 3300 60  0001 C CNN
F 3 "" H 10800 3300 60  0000 C CNN
	1    10800 3300
	1    0    0    -1  
$EndComp
Text GLabel 10200 2950 0    60   Input ~ 0
3V3
Text GLabel 10200 3250 0    60   BiDi ~ 0
SDA0
Text GLabel 10200 3400 0    60   Input ~ 0
SCL0
$Comp
L GND #PWR018
U 1 1 56E936A0
P 10200 3100
F 0 "#PWR018" H 10200 2850 50  0001 C CNN
F 1 "GND" H 10200 2950 50  0000 C CNN
F 2 "" H 10200 3100 50  0000 C CNN
F 3 "" H 10200 3100 50  0000 C CNN
	1    10200 3100
	0    1    1    0   
$EndComp
$Comp
L R R?
U 1 1 56EFEE12
P 6000 7100
F 0 "R?" V 6080 7100 50  0000 C CNN
F 1 "22k" V 6000 7100 50  0000 C CNN
F 2 "" V 5930 7100 50  0000 C CNN
F 3 "" H 6000 7100 50  0000 C CNN
	1    6000 7100
	0    1    1    0   
$EndComp
$Comp
L R R?
U 1 1 56EFEF85
P 5600 7100
F 0 "R?" V 5680 7100 50  0000 C CNN
F 1 "22k" V 5600 7100 50  0000 C CNN
F 2 "" V 5530 7100 50  0000 C CNN
F 3 "" H 5600 7100 50  0000 C CNN
	1    5600 7100
	0    1    1    0   
$EndComp
Wire Wire Line
	5750 7100 5850 7100
Wire Wire Line
	5450 7100 5450 6800
$Comp
L GND #PWR?
U 1 1 56EFF172
P 5450 6800
F 0 "#PWR?" H 5450 6550 50  0001 C CNN
F 1 "GND" H 5450 6650 50  0000 C CNN
F 2 "" H 5450 6800 50  0000 C CNN
F 3 "" H 5450 6800 50  0000 C CNN
	1    5450 6800
	-1   0    0    1   
$EndComp
Wire Wire Line
	5800 6900 5800 7100
Connection ~ 5800 7100
$Comp
L AdafruitOLED U?
U 1 1 57E6A00A
P 3700 4800
F 0 "U?" H 4050 4650 60  0000 C CNN
F 1 "AdafruitOLED" H 3950 4800 60  0000 C CNN
F 2 "" H 4050 4650 60  0000 C CNN
F 3 "" H 4050 4650 60  0000 C CNN
	1    3700 4800
	1    0    0    -1  
$EndComp
$Comp
L GND #PWR?
U 1 1 57E6A2EB
P 4350 4350
F 0 "#PWR?" H 4350 4100 50  0001 C CNN
F 1 "GND" H 4350 4200 50  0000 C CNN
F 2 "" H 4350 4350 50  0000 C CNN
F 3 "" H 4350 4350 50  0000 C CNN
	1    4350 4350
	-1   0    0    1   
$EndComp
Text GLabel 4200 4000 1    60   Input ~ 0
Vin
Wire Wire Line
	4200 4000 4200 4350
NoConn ~ 4050 4350
Text GLabel 3450 4250 1    60   Input ~ 0
SCK
Wire Wire Line
	3450 4250 3450 4350
Text GLabel 3300 4250 1    60   Output ~ 0
MISO
Wire Wire Line
	3300 4250 3300 4350
NoConn ~ 3400 3100
Text GLabel 3600 4250 1    60   Input ~ 0
MOSI
Wire Wire Line
	3600 4250 3600 4350
Text GLabel 3750 4250 1    60   Input ~ 0
OLEDrst
Wire Wire Line
	3750 4250 3750 4350
Text GLabel 3900 4250 1    60   Input ~ 0
OLEDcs
Wire Wire Line
	3900 4250 3900 4350
$Comp
L SHT31D U?
U 1 1 57E6CBFB
P 12900 2150
F 0 "U?" H 12850 2150 60  0000 C CNN
F 1 "SHT31D" H 12850 2350 60  0000 C CNN
F 2 "" H 12850 2250 60  0000 C CNN
F 3 "" H 12850 2250 60  0000 C CNN
	1    12900 2150
	1    0    0    -1  
$EndComp
Text GLabel 12550 2500 3    60   Input ~ 0
3V3
Wire Wire Line
	12550 2400 12550 2500
$Comp
L GND #PWR?
U 1 1 57E6D2E5
P 12650 2400
F 0 "#PWR?" H 12650 2150 50  0001 C CNN
F 1 "GND" H 12650 2250 50  0000 C CNN
F 2 "" H 12650 2400 50  0000 C CNN
F 3 "" H 12650 2400 50  0000 C CNN
	1    12650 2400
	1    0    0    -1  
$EndComp
Text GLabel 12750 2550 3    60   Input ~ 0
SCL0
Wire Wire Line
	12750 2550 12750 2400
Text GLabel 12850 2550 3    60   BiDi ~ 0
SDA0
Wire Wire Line
	12850 2550 12850 2400
NoConn ~ 12950 2400
NoConn ~ 13050 2400
NoConn ~ 13150 2400
$Comp
L BlueFly U?
U 1 1 57E6F790
P 1250 3850
F 0 "U?" H 1100 3700 60  0000 C CNN
F 1 "BlueFly" H 1100 3800 60  0000 C CNN
F 2 "" H 1100 3800 60  0000 C CNN
F 3 "" H 1100 3800 60  0000 C CNN
	1    1250 3850
	1    0    0    -1  
$EndComp
Text GLabel 2150 4000 2    60   Input ~ 0
TX1
Wire Wire Line
	2150 4000 2050 4000
Text GLabel 2150 4150 2    60   Input ~ 0
3V3
Wire Wire Line
	2050 4150 2150 4150
$Comp
L GND #PWR?
U 1 1 57E6F9AB
P 2150 3700
F 0 "#PWR?" H 2150 3450 50  0001 C CNN
F 1 "GND" H 2150 3550 50  0000 C CNN
F 2 "" H 2150 3700 50  0000 C CNN
F 3 "" H 2150 3700 50  0000 C CNN
	1    2150 3700
	0    -1   -1   0   
$EndComp
Wire Wire Line
	2050 3700 2150 3700
Text GLabel 2150 3850 2    60   Input ~ 0
TX1
Wire Wire Line
	2150 3850 2050 3850
NoConn ~ 2050 4300
$EndSCHEMATC
